# This file uses meters as units for non-parametric coordinates.

mtllib Schild2.mtl
g default
v 9.874866 181.904577 -31.173539
v 5.011274 181.904577 -31.173525
v 9.874866 182.351246 -14.812508
v 5.011274 182.351246 -14.812505
v 5.497564 191.600665 68.919327
v 5.011274 191.041644 67.863352
v 9.874866 191.041644 67.863352
v 9.388577 191.600665 68.919327
v 5.497564 191.932570 -57.219136
v 5.011274 191.388850 -56.540543
v 5.011274 187.142440 -57.397690
v 5.497564 187.524052 -58.076283
v 9.874866 191.388850 -56.540543
v 9.388577 191.932570 -57.219136
v 9.388577 187.524052 -58.076283
v 9.874866 187.142440 -57.397690
v 5.497564 173.944558 -49.961057
v 5.011274 174.488265 -49.407074
v 5.497564 172.346447 -31.173525
v 5.011274 172.890154 -31.173525
v 9.874866 174.488265 -49.407074
v 9.388577 173.944558 -49.961057
v 9.874866 172.890154 -31.173525
v 9.388577 172.346447 -31.173525
v 5.497564 181.572659 63.314301
v 5.011274 181.612209 62.592888
v 9.874866 181.612209 62.592888
v 9.388577 181.572659 63.314301
v 5.497564 192.436344 -31.173539
v 5.011274 191.892624 -31.173539
v 9.874866 191.892624 -31.173539
v 9.388577 192.436344 -31.173539
v 9.874866 172.475115 -14.812505
v 9.388586 171.931407 -14.812505
v 5.011274 172.475164 -14.812505
v 5.497585 171.931407 -14.812505
v 5.497585 192.379251 -14.812508
v 5.011274 191.835531 -14.812508
v 9.874866 191.835531 -14.812508
v 9.388556 192.379251 -14.812508
v 9.874866 171.628909 62.704360
v 9.388577 171.090469 63.052655
v 5.011274 171.628909 62.704360
v 5.497564 171.090469 63.052655
v 9.874866 176.851486 -56.095441
v 9.388577 176.992564 -56.823990
v 5.497564 176.992564 -56.823990
v 5.011274 176.851486 -56.095441
v 9.388577 181.929987 -63.077136
v 9.874866 181.968988 -62.168469
v 5.497564 181.929987 -63.077136
v 5.011274 181.968988 -62.168469
v 5.011274 174.383777 65.230281
v 5.497564 174.278455 65.975694
v 9.874866 174.383777 65.230281
v 9.388577 174.278455 65.975694
v 5.497577 193.122906 5.271236
v 5.497569 192.917673 24.271213
v 5.497565 192.764888 39.067660
v 5.497564 192.914773 53.319096
v 5.011274 192.249669 53.264392
v 5.011274 192.166104 39.037397
v 5.011274 192.356468 24.238352
v 5.011274 192.571660 5.214150
v 9.388577 192.914773 53.319096
v 9.388576 192.764888 39.067660
v 9.388573 192.917673 24.271213
v 9.388564 193.122906 5.271236
v 9.874866 192.571660 5.214150
v 9.874866 192.356468 24.238352
v 9.874866 192.166104 39.037397
v 9.874866 192.249669 53.264392
v 9.874866 172.123319 53.196859
v 9.874866 172.460755 39.004469
v 9.874866 172.904632 24.193982
v 9.874866 173.202620 5.146733
v 9.388583 172.666925 5.208823
v 9.388580 172.371183 24.228334
v 9.388579 171.942882 39.031462
v 9.388577 171.635749 53.240000
v 5.497564 171.635749 53.240000
v 5.497565 171.942882 39.031462
v 5.497569 172.371183 24.228334
v 5.497577 172.666925 5.208823
v 5.011274 173.202645 5.146732
v 5.011274 172.904645 24.193982
v 5.011274 172.460755 39.004469
v 5.011274 172.123319 53.196859
v 9.874866 183.085665 5.200444
v 9.874866 182.791734 24.225873
v 9.874866 182.367264 39.035154
v 9.874866 182.065896 53.250580
v 5.011274 183.085665 5.200420
v 5.011274 182.791734 24.225863
v 5.011274 182.367264 39.035163
v 5.011274 182.065896 53.250604
vt 0.237167 0.611980
vt 0.239356 0.691036
vt 0.060726 0.657382
vt 0.066340 0.631101
vt 0.032255 0.691615
vt 0.061610 0.627260
vt 0.236832 0.606824
vt 0.240048 0.754974
vt 0.070590 0.724548
vt 0.115536 0.741474
vt 0.117038 0.420308
vt 0.255986 0.409808
vt 0.255070 0.477589
vt 0.066098 0.437752
vt 0.104837 0.772737
vt 0.238014 0.788396
vt 0.019860 0.476195
vt 0.362241 0.792408
vt 0.254755 0.552798
vt 0.055711 0.515918
vt 0.954028 0.419515
vt 0.062325 0.548093
vt 0.991510 0.620289
vt 0.961627 0.687328
vt 0.958940 0.758994
vt 0.936547 0.682788
vt 0.946283 0.734172
vt 0.054559 0.604284
vt 0.028257 0.638466
vt 0.054024 0.653669
vt 0.007523 0.695802
vt 0.027128 0.692104
vt 0.047709 0.746812
vt 0.064539 0.725222
vt 0.111285 0.746154
vt 0.234480 0.579061
vt 0.239959 0.760218
vt 0.012053 0.475790
vt 0.059469 0.436608
vt 0.938581 0.395310
vt 0.960278 0.418556
vt 0.377187 0.557100
vt 0.254734 0.558305
vt 0.942775 0.470809
vt 0.255977 0.404320
vt 0.112700 0.414845
vt 0.049488 0.519358
vt 0.057025 0.553452
vt 0.968144 0.730896
vt 0.871562 0.554090
vt 0.523718 0.409107
vt 0.981876 0.542305
vt 0.871011 0.548242
vt 0.524914 0.561042
vt 0.377169 0.551692
vt 0.961548 0.614819
vt 0.863373 0.603042
vt 0.513050 0.605860
vt 0.360933 0.605374
vt 0.362071 0.757546
vt 0.514238 0.757474
vt 0.377379 0.403182
vt 0.523248 0.414369
vt 0.864910 0.746837
vt 0.926319 0.750620
vt 0.868833 0.399707
vt 0.935937 0.400355
vt 0.513458 0.600339
vt 0.360044 0.575627
vt 0.513296 0.677215
vt 0.361022 0.610965
vt 0.513680 0.751980
vt 0.361773 0.683373
vt 0.362076 0.763020
vt 0.514961 0.787020
vt 0.377319 0.408549
vt 0.523796 0.486395
vt 0.376953 0.481436
vt 0.524457 0.555672
vt 0.970658 0.583776
vt 0.968802 0.610186
vt 0.864431 0.576327
vt 0.929839 0.682225
vt 0.862980 0.608661
vt 0.865425 0.751544
vt 0.931351 0.773057
vt 0.868628 0.404623
vt 0.936552 0.471345
vt 0.869962 0.475543
vt 0.973924 0.537972
vt 0.941126 0.732046
vt 0.924242 0.747013
vt 0.864255 0.679163
vt 0.513090 0.571017
vt 0.866633 0.778055
vt 0.655741 0.572281
vt 0.663004 0.557784
vt 0.763937 0.574638
vt 0.769604 0.554887
vt 0.769289 0.549353
vt 0.662675 0.552412
vt 0.763526 0.602614
vt 0.655414 0.601120
vt 0.655170 0.606619
vt 0.763267 0.608165
vt 0.765675 0.749196
vt 0.657302 0.750479
vt 0.657714 0.755836
vt 0.766063 0.754270
vt 0.766807 0.782161
vt 0.767476 0.402955
vt 0.658186 0.784776
vt 0.661286 0.406672
vt 0.661090 0.411877
vt 0.767361 0.408041
vt 0.655750 0.677313
vt 0.763802 0.678425
vt 0.661803 0.483236
vt 0.768293 0.479032
vn -0.800277 -0.292558 0.523418
vn -0.800277 -0.292558 0.523418
vn -0.827928 -0.093677 0.552956
vn -0.828218 -0.087908 0.553468
vn 0.800278 -0.292557 0.523417
vn 0.800278 -0.292557 0.523417
vn 0.828219 -0.087908 0.553467
vn 0.827928 -0.093677 0.552955
vn -0.749322 0.662078 -0.012975
vn -0.749322 0.662078 -0.012975
vn -0.747829 0.663853 -0.007108
vn -0.747799 0.663889 -0.006990
vn -0.840886 0.105156 -0.530899
vn -0.840886 0.105156 -0.530899
vn -0.840886 0.105156 -0.530899
vn -0.840886 0.105156 -0.530899
vn -0.822347 0.382377 -0.421348
vn -0.822347 0.382377 -0.421347
vn -0.822347 0.382377 -0.421348
vn -0.822347 0.382377 -0.421347
vn 0.749323 0.662078 -0.012975
vn 0.749323 0.662078 -0.012975
vn 0.747799 0.663888 -0.006990
vn 0.747830 0.663853 -0.007108
vn 0.840887 0.105155 -0.530897
vn 0.840887 0.105155 -0.530897
vn 0.840887 0.105155 -0.530897
vn 0.840887 0.105155 -0.530897
vn 0.822347 0.382377 -0.421347
vn 0.822347 0.382377 -0.421347
vn 0.822347 0.382377 -0.421347
vn 0.822347 0.382377 -0.421347
vn -0.657861 -0.699437 -0.279295
vn -0.657861 -0.699437 -0.279295
vn -0.657861 -0.699437 -0.279295
vn -0.657861 -0.699437 -0.279295
vn -0.758222 -0.649580 -0.056082
vn -0.758222 -0.649580 -0.056082
vn -0.752076 -0.658040 -0.036938
vn -0.752737 -0.657169 -0.038945
vn -0.744406 -0.667703 0.005698
vn -0.744396 -0.667713 0.005920
vn 0.657862 -0.699437 -0.279295
vn 0.657862 -0.699437 -0.279295
vn 0.657862 -0.699437 -0.279295
vn 0.657862 -0.699437 -0.279295
vn 0.758222 -0.649579 -0.056082
vn 0.758222 -0.649579 -0.056082
vn 0.752735 -0.657170 -0.038946
vn 0.752074 -0.658042 -0.036939
vn 0.744391 -0.667718 0.005919
vn 0.744401 -0.667708 0.005697
vn -0.806846 0.202491 0.554975
vn -0.806846 0.202491 0.554975
vn 0.806846 0.202490 0.554975
vn 0.806846 0.202490 0.554975
vn -0.746203 0.665606 -0.012256
vn -0.746225 0.665572 -0.012695
vn 0.746226 0.665571 -0.012695
vn 0.746203 0.665605 -0.012256
vn 0.787135 -0.416829 0.454611
vn 0.787135 -0.416829 0.454611
vn 0.787135 -0.416829 0.454611
vn 0.787135 -0.416829 0.454611
vn -0.787135 -0.416830 0.454611
vn -0.787135 -0.416830 0.454611
vn -0.787135 -0.416830 0.454611
vn -0.787135 -0.416830 0.454611
vn 0.700922 -0.552677 -0.450840
vn 0.700922 -0.552677 -0.450840
vn 0.700922 -0.552677 -0.450840
vn 0.700922 -0.552677 -0.450840
vn -0.700921 -0.552678 -0.450840
vn -0.700921 -0.552678 -0.450840
vn -0.700921 -0.552678 -0.450840
vn -0.700921 -0.552678 -0.450840
vn 0.000000 -0.487897 0.872901
vn 0.000000 -0.487897 0.872901
vn 0.000000 -0.487897 0.872901
vn 0.000000 -0.487897 0.872901
vn 0.000000 0.999945 -0.010533
vn 0.000000 0.999945 -0.010533
vn 0.000000 0.999813 -0.019338
vn 0.000000 0.999813 -0.019338
vn 0.000000 0.190856 -0.981618
vn 0.000000 0.190856 -0.981618
vn 0.000000 0.190856 -0.981618
vn 0.000000 0.190856 -0.981618
vn 0.000000 -0.996402 -0.084756
vn 0.000000 -0.996402 -0.084756
vn 0.000000 -0.998364 -0.057182
vn 0.000000 -0.998364 -0.057182
vn 1.000000 0.000000 0.000000
vn 1.000000 0.000000 0.000000
vn 1.000000 0.000000 0.000000
vn 1.000000 0.000000 0.000000
vn 0.000000 0.342761 0.939422
vn 0.000000 0.342761 0.939422
vn 0.000000 0.342761 0.939422
vn 0.000000 0.342761 0.939422
vn 1.000000 0.000000 0.000000
vn 1.000000 0.000000 0.000000
vn 1.000000 0.000000 0.000000
vn 0.000000 -0.913920 -0.405895
vn 0.000000 -0.913920 -0.405895
vn 0.000000 -0.913920 -0.405895
vn 0.000000 -0.913920 -0.405895
vn -1.000000 0.000000 0.000000
vn -1.000000 0.000000 0.000000
vn -1.000000 -0.000000 0.000000
vn -1.000000 0.000000 0.000000
vn 1.000000 -0.000000 0.000000
vn 1.000000 -0.000000 0.000000
vn 1.000000 0.000000 0.000000
vn 0.000000 0.999823 -0.018835
vn 0.000000 0.999823 -0.018835
vn -1.000000 -0.000000 0.000000
vn -1.000000 0.000000 0.000000
vn -1.000000 0.000000 0.000000
vn -1.000000 0.000000 0.000000
vn 0.000000 -0.999961 0.008808
vn 0.000000 -0.999961 0.008808
vn -1.000000 -0.000000 0.000000
vn -1.000000 -0.000000 0.000000
vn 0.000000 0.666472 -0.745530
vn 0.000000 0.666472 -0.745530
vn 0.000000 0.666472 -0.745530
vn 0.000000 0.666472 -0.745530
vn 0.000000 -0.784838 -0.619701
vn 0.000000 -0.784838 -0.619701
vn 0.000000 -0.784838 -0.619701
vn 0.000000 -0.784838 -0.619701
vn 1.000000 0.000000 0.000000
vn -1.000000 0.000000 0.000000
vn 0.000000 -0.675815 0.737071
vn 0.000000 -0.675815 0.737071
vn 0.000000 -0.675815 0.737071
vn 0.000000 -0.675815 0.737071
vn -0.798238 0.601925 0.022402
vn -0.779691 0.626163 0.001173
vn -0.779703 0.626149 0.001168
vn -0.798657 0.601288 0.024479
vn -0.759016 0.651030 0.007350
vn -0.759151 0.650873 0.007352
vn -0.750034 0.661341 -0.008711
vn -0.749936 0.661447 -0.009206
vn 0.750035 0.661340 -0.008711
vn 0.759017 0.651029 0.007350
vn 0.759152 0.650872 0.007352
vn 0.749936 0.661446 -0.009206
vn 0.779691 0.626163 0.001173
vn 0.779703 0.626148 0.001168
vn 0.798239 0.601925 0.022402
vn 0.798658 0.601287 0.024479
vn 0.741465 -0.670951 0.007346
vn 0.736739 -0.676021 -0.014530
vn 0.736602 -0.676166 -0.014754
vn 0.741495 -0.670915 0.007596
vn 0.726225 -0.687221 -0.018029
vn 0.725826 -0.687645 -0.017918
vn 0.718143 -0.695475 -0.024173
vn 0.718143 -0.695449 -0.024918
vn -0.741498 -0.670912 0.007596
vn -0.736602 -0.676165 -0.014754
vn -0.736740 -0.676020 -0.014531
vn -0.741469 -0.670947 0.007346
vn -0.725825 -0.687646 -0.017919
vn -0.726224 -0.687221 -0.018030
vn -0.718142 -0.695450 -0.024918
vn -0.718142 -0.695476 -0.024173
vn -0.803413 0.593357 0.049555
vn -0.803413 0.593357 0.049555
vn 0.803413 0.593356 0.049555
vn 0.803413 0.593356 0.049555
vn 0.718082 -0.694953 -0.037398
vn 0.718082 -0.694953 -0.037398
vn -0.718082 -0.694953 -0.037398
vn -0.718082 -0.694953 -0.037398
vn 0.000000 0.999905 -0.013775
vn 0.000000 0.999905 -0.013775
vn 1.000000 0.000000 0.000000
vn 1.000000 0.000000 0.000000
vn 1.000000 -0.000000 0.000000
vn 0.000000 -0.999937 0.011264
vn 0.000000 -0.999937 0.011264
vn -1.000000 0.000000 0.000000
vn -1.000000 0.000000 0.000000
vn -1.000000 0.000000 0.000000
vn 0.000000 0.996471 0.083939
vn 0.000000 0.996471 0.083939
vn 0.000000 0.999240 0.038971
vn 0.000000 0.999240 0.038971
vn 1.000000 0.000000 0.000000
vn 1.000000 -0.000000 0.000000
vn 1.000000 -0.000000 0.000000
vn 1.000000 0.000000 0.000000
vn 0.000000 -0.999371 -0.035464
vn 0.000000 -0.999371 -0.035464
vn 0.000000 -0.998460 -0.055483
vn 0.000000 -0.998460 -0.055483
vn -1.000000 0.000000 0.000000
vn -1.000000 0.000000 0.000000
vn -1.000000 0.000000 0.000000
vn -1.000000 0.000000 0.000000
vn -1.000000 0.000000 0.000000
vn -1.000000 -0.000000 0.000000
vn -1.000000 0.000000 0.000000
vn 1.000000 0.000000 0.000000
vn 1.000000 0.000000 0.000000
vn 1.000000 0.000000 0.000000
vn 0.000000 0.999944 0.010593
vn 0.000000 0.999944 0.010593
vn 0.000000 1.000000 0.000100
vn 0.000000 1.000000 0.000100
vn 1.000000 -0.000000 0.000000
vn 1.000000 -0.000000 0.000000
vn 1.000000 0.000000 0.000000
vn 1.000000 -0.000000 0.000000
vn 0.000000 -0.999771 -0.021402
vn 0.000000 -0.999771 -0.021402
vn 0.000000 -0.999679 -0.025341
vn 0.000000 -0.999679 -0.025341
vn -1.000000 -0.000000 0.000000
vn -1.000000 -0.000000 0.000000
vn -1.000000 -0.000000 0.000000
vn -1.000000 0.000000 0.000000
vn 1.000000 -0.000000 0.000000
vn 1.000000 -0.000000 0.000000
vn -1.000000 0.000000 0.000000
vn -1.000000 0.000000 0.000000
s 1
g pCube4
usemtl initialShadingGroup
f 5/52/1 6/90/2 26/88/3 25/44/4
s 2
f 7/56/5 8/81/6 28/26/7 27/83/8
s 3
f 9/48/9 10/22/10 30/19/11 29/43/12
s off
f 10/22/13 9/48/14 12/47/15 11/20/16
f 11/20/17 12/47/18 51/38/19 52/17/20
s 4
f 13/4/21 14/6/22 32/7/23 31/1/24
s off
f 14/6/25 13/4/26 16/3/27 15/30/28
f 15/30/29 16/3/30 50/5/31 49/32/32
f 17/46/33 18/11/34 48/14/35 47/39/36
s 5
f 18/11/37 17/46/38 19/45/39 20/12/40
f 20/12/40 19/45/39 36/62/41 35/76/42
s off
f 21/10/43 22/35/44 46/34/45 45/9/46
s 6
f 22/35/47 21/10/48 23/8/49 24/37/50
f 24/37/50 23/8/49 33/60/51 34/74/52
s 1
f 25/44/4 26/88/3 53/21/53 54/41/54
s 2
f 27/83/8 28/26/7 56/27/55 55/91/56
s 3
f 29/43/12 30/19/11 38/55/57 37/42/58
s 4
f 31/1/24 32/7/23 40/59/59 39/71/60
s off
f 42/65/61 41/92/62 55/91/63 56/27/64
f 43/67/65 44/40/66 54/41/67 53/21/68
f 45/9/69 46/34/70 49/32/71 50/5/72
f 47/39/73 48/14/74 52/17/75 51/38/76
f 25/24/77 28/26/78 8/81/79 5/23/80
s 7
f 29/36/81 32/7/82 14/6/83 9/28/84
s off
f 9/28/85 14/6/86 15/30/87 12/29/88
s 8
f 17/15/89 22/35/90 24/37/91 19/16/92
s 9
f 31/1/93 1/2/94 16/3/95 13/4/96
s off
f 54/49/97 56/27/98 28/26/99 25/24/100
s 9
f 1/2/94 23/8/101 21/10/102 45/9/103
s off
f 47/33/104 46/34/105 22/35/106 17/15/107
s 11
f 18/11/108 20/12/109 2/13/110 48/14/111
s 9
f 3/73/112 33/60/113 23/8/101 1/2/94
f 39/71/114 3/73/112 1/2/94 31/1/93
s 7
f 37/69/115 40/59/116 32/7/82 29/36/81
s 11
f 30/19/117 2/13/110 4/78/118 38/55/119
f 2/13/110 20/12/109 35/76/120 4/78/118
s 8
f 19/16/92 24/37/91 34/74/121 36/18/122
s 11
f 11/20/123 2/13/110 30/19/117 10/22/124
s off
f 15/30/125 49/32/126 51/31/127 12/29/128
f 49/32/129 46/34/130 47/33/131 51/31/132
s 9
f 1/2/94 45/9/103 50/5/133
f 1/2/94 50/5/133 16/3/95
s 11
f 2/13/110 11/20/123 52/17/134
f 2/13/110 52/17/134 48/14/111
s off
f 54/25/135 44/86/136 42/65/137 56/27/138
s 3
f 60/50/139 59/99/140 62/100/141 61/53/142
f 59/99/140 58/97/143 63/101/144 62/100/141
f 58/97/143 57/54/145 64/79/146 63/101/144
s 4
f 68/68/147 67/103/148 70/104/149 69/58/150
f 67/103/148 66/102/151 71/105/152 70/104/149
f 66/102/151 65/57/153 72/84/154 71/105/152
s 6
f 76/72/155 75/107/156 78/108/157 77/61/158
f 75/107/156 74/106/159 79/109/160 78/108/157
f 74/106/159 73/64/161 80/85/162 79/109/160
s 5
f 84/51/163 83/113/164 86/114/165 85/63/166
f 83/113/164 82/111/167 87/115/168 86/114/165
f 82/111/167 81/66/169 88/87/170 87/115/168
s 3
f 6/90/171 5/52/172 60/50/139 61/53/142
f 64/79/146 57/54/145 37/42/58 38/55/57
s 4
f 8/81/173 7/56/174 72/84/154 65/57/153
f 68/68/147 69/58/150 39/71/60 40/59/59
s 6
f 34/74/52 33/60/51 76/72/155 77/61/158
s 5
f 35/76/42 36/62/41 84/51/163 85/63/166
s 6
f 80/85/162 73/64/161 41/92/175 42/65/176
s 5
f 88/87/170 81/66/169 44/40/177 43/67/178
s 7
f 57/94/179 68/68/180 40/59/116 37/69/115
s 9
f 69/58/181 89/70/182 3/73/112 39/71/114
f 89/70/182 76/72/183 33/60/113 3/73/112
s 8
f 36/18/122 34/74/121 77/61/184 84/75/185
s 11
f 4/78/118 35/76/120 85/63/186 93/77/187
f 38/55/119 4/78/118 93/77/187 64/79/188
s 7
f 5/80/189 8/81/190 65/57/191 60/82/192
s 9
f 27/83/193 92/93/194 72/84/195 7/56/196
s 8
f 81/95/197 80/85/198 42/65/199 44/86/200
s 11
f 96/89/201 88/87/202 43/67/203 53/21/204 26/88/205
f 61/53/206 96/89/201 26/88/205 6/90/207
s 9
f 55/91/208 41/92/209 73/64/210 92/93/194 27/83/193
s 7
f 57/94/179 58/96/211 67/103/212 68/68/180
f 58/96/211 59/98/213 66/102/214 67/103/212
f 59/98/213 60/82/192 65/57/191 66/102/214
s 9
f 71/105/215 72/84/195 92/93/194 91/117/216
f 69/58/181 70/104/217 90/116/218 89/70/182
f 70/104/217 71/105/215 91/117/216 90/116/218
s 8
f 77/61/184 78/108/219 83/112/220 84/75/185
f 78/108/219 79/109/221 82/110/222 83/112/220
f 79/109/221 80/85/198 81/95/197 82/110/222
s 11
f 87/115/223 88/87/202 96/89/201 95/119/224
f 85/63/186 86/114/225 94/118/226 93/77/187
f 86/114/225 87/115/223 95/119/224 94/118/226
s 9
f 73/64/210 74/106/227 91/117/216 92/93/194
f 74/106/227 75/107/228 90/116/218 91/117/216
f 75/107/228 76/72/183 89/70/182 90/116/218
s 11
f 61/53/206 62/100/229 95/119/224 96/89/201
f 62/100/229 63/101/230 94/118/226 95/119/224
f 63/101/230 64/79/188 93/77/187 94/118/226
