# This file uses centimeters as units for non-parametric coordinates.

mtllib ShrineBoden.mtl
g default
v -19.070389 -3.737322 19.070389
v -13.621708 -3.737322 19.070389
v 13.621710 -3.737322 19.070389
v 19.070389 -3.737322 19.070389
v -19.070389 -3.737322 13.621708
v -13.377857 -0.652298 13.377857
v -8.026713 -0.652298 13.377857
v -2.675570 -0.652298 13.377857
v 2.675572 -0.652298 13.377857
v 8.026715 -0.652298 13.377857
v 13.377860 -0.652298 13.377857
v 19.070389 -3.737322 13.621708
v -13.377857 -0.652298 8.026713
v -8.026713 -0.652298 8.026713
v -2.675570 -0.652298 8.026713
v 2.675572 -0.652298 8.026713
v 8.026715 -0.652298 8.026713
v 13.377860 -0.652298 8.026713
v -13.377857 -0.652298 2.675570
v -8.026713 -0.652298 2.675570
v -2.675570 -0.652298 2.675570
v 2.675572 -0.652298 2.675570
v 8.026715 -0.652298 2.675570
v 13.377860 -0.652298 2.675570
v -13.377857 -0.652298 -2.675572
v -8.026713 -0.652298 -2.675572
v -2.675570 -0.652298 -2.675572
v 2.675572 -0.652298 -2.675572
v 8.026715 -0.652298 -2.675572
v 13.377860 -0.652298 -2.675572
v -13.377857 -0.652298 -8.026715
v -8.026713 -0.652298 -8.026715
v -2.675570 -0.652298 -8.026715
v 2.675572 -0.652298 -8.026715
v 8.026715 -0.652298 -8.026715
v 13.377860 -0.652298 -8.026715
v -19.070389 -3.737322 -13.621710
v -13.377857 -0.652298 -13.377860
v -8.026713 -0.652298 -13.377860
v -2.675570 -0.652298 -13.377860
v 2.675572 -0.652298 -13.377860
v 8.026715 -0.652298 -13.377860
v 13.377860 -0.652298 -13.377860
v 19.070389 -3.737322 -13.621710
v -19.070389 -3.737322 -19.070389
v -13.621708 -3.737322 -19.070389
v 13.621710 -3.737322 -19.070389
v 19.070389 -3.737322 -19.070389
v -13.377857 0.000000 13.377857
v 2.675572 0.000000 13.377857
v 8.026715 0.000000 13.377857
v -2.675570 0.000000 13.377857
v -8.026713 0.000000 13.377857
v 13.377860 0.000000 13.377857
v -13.377857 0.000000 -8.026715
v -13.377857 0.000000 -13.377860
v -13.377857 0.000000 8.026713
v -13.377857 0.000000 2.675570
v -13.377857 0.000000 -2.675572
v 13.377860 0.000000 -13.377860
v 13.377860 0.000000 -8.026715
v 13.377860 0.000000 -2.675572
v 13.377860 0.000000 2.675570
v 13.377860 0.000000 8.026713
v -8.026713 0.000000 -13.377860
v -2.675570 0.000000 -13.377860
v 2.675572 0.000000 -13.377860
v 8.026715 0.000000 -13.377860
v -19.070389 -0.186762 19.070389
v -19.015688 -0.054701 19.015688
v -18.883625 0.000000 18.883625
v -13.613711 0.000000 18.883713
v -13.619366 -0.054726 19.015713
v -13.621708 -0.186847 19.070389
v -19.070389 -0.186847 13.621708
v -19.015713 -0.054726 13.619366
v -18.883713 0.000000 13.613711
v 13.613713 0.000000 18.883713
v 13.619368 -0.054726 19.015713
v 13.621710 -0.186847 19.070389
v 18.883625 0.000000 18.883625
v 19.015688 -0.054701 19.015688
v 19.070389 -0.186762 19.070389
v 18.883713 0.000000 13.613711
v 19.015713 -0.054726 13.619366
v 19.070389 -0.186847 13.621708
v -19.070389 -0.186847 -13.621710
v -19.015713 -0.054726 -13.619368
v -18.883713 0.000000 -13.613713
v 18.883713 0.000000 -13.613713
v 19.015713 -0.054726 -13.619368
v 19.070389 -0.186847 -13.621710
v -13.621708 -0.186847 -19.070389
v -13.619366 -0.054726 -19.015713
v -13.613711 0.000000 -18.883713
v -18.883625 0.000000 -18.883625
v -19.015688 -0.054701 -19.015688
v -19.070389 -0.186762 -19.070389
v 13.621710 -0.186847 -19.070389
v 13.619368 -0.054726 -19.015713
v 13.613713 0.000000 -18.883713
v 18.883625 0.000000 -18.883625
v 19.015688 -0.054701 -19.015688
v 19.070389 -0.186762 -19.070389
v 18.336763 3.074780 14.983094
v 18.746401 3.074780 14.983094
v 18.746401 3.074780 18.354292
v 18.346819 3.079675 18.346819
v 18.743181 3.071563 18.743181
v 18.354294 3.074780 18.746401
v 14.968785 3.071563 18.743181
v 14.968780 3.071563 18.339979
v 15.320215 3.074780 18.336761
v 15.320216 3.074780 18.746401
v 18.743181 3.071563 14.594205
v 18.339981 3.071563 14.594205
v 18.336763 2.735099 14.983094
v 18.346819 2.730205 18.346819
v 18.746401 2.735099 18.354292
v 18.746401 2.735099 14.983094
v 18.354294 2.735099 18.746401
v 18.743181 2.738317 18.743181
v 14.968785 2.738317 18.743181
v 15.320216 2.735099 18.746401
v 15.320215 2.735099 18.336761
v 14.968780 2.738317 18.339979
v 18.339981 2.738317 14.594205
v 18.743181 2.738317 14.594205
v -18.336763 3.074780 14.983094
v -18.746401 3.074780 14.983094
v -18.746401 3.074780 18.354292
v -18.346819 3.079675 18.346819
v -18.743181 3.071563 18.743181
v -18.354294 3.074780 18.746401
v -14.968785 3.071563 18.743181
v -14.968780 3.071563 18.339979
v -15.320215 3.074780 18.336761
v -15.320216 3.074780 18.746401
v -18.743181 3.071563 14.594205
v -18.339981 3.071563 14.594205
v -18.336763 2.735099 14.983094
v -18.346819 2.730205 18.346819
v -18.746401 2.735099 18.354292
v -18.746401 2.735099 14.983094
v -18.354294 2.735099 18.746401
v -18.743181 2.738317 18.743181
v -14.968785 2.738317 18.743181
v -15.320216 2.735099 18.746401
v -15.320215 2.735099 18.336761
v -14.968780 2.738317 18.339979
v -18.339981 2.738317 14.594205
v -18.743181 2.738317 14.594205
v -18.728870 -0.000000 18.728870
v -14.983094 -0.000000 18.728870
v 14.983098 -0.000000 18.728870
v 18.728870 -0.000000 18.728870
v -18.728870 -0.000000 14.983094
v 18.728870 -0.000000 14.983094
v -14.983094 -0.000000 18.354292
v 14.983094 -0.000000 18.354292
v 18.728870 -0.000000 18.354292
v -18.728870 -0.000000 18.354292
v -18.354292 -0.000000 14.983094
v -18.354292 -0.000000 18.354294
v -18.354292 -0.000000 18.728870
v 18.354294 -0.000000 14.983094
v 18.354294 -0.000000 18.354294
v 18.354294 -0.000000 18.728870
v 15.320216 -0.000000 18.728870
v 15.320215 -0.000000 18.354292
v -18.354294 -0.000000 14.608518
v 18.354294 -0.000000 14.608518
v 18.728870 -0.000000 14.608518
v -18.728870 -0.000000 14.608518
v 18.354294 2.904944 18.354294
v 18.354294 2.904944 18.728870
v 18.728870 2.904944 18.728870
v 18.728870 2.904944 18.354292
v -18.728870 2.904944 14.983094
v -18.354292 2.904944 14.983094
v -18.354294 2.904944 14.608518
v -18.728870 2.904944 14.608518
v -18.728870 2.904944 18.728870
v -18.354292 2.904944 18.728870
v -18.354292 2.904944 18.354294
v -18.728870 2.904944 18.354292
v 14.983098 2.904944 18.728870
v 15.320216 2.904944 18.728870
v 15.320215 2.904944 18.354292
v 14.983094 2.904944 18.354292
v 18.354294 2.904944 14.608518
v 18.728870 2.904944 14.608518
v 18.354294 2.904944 14.983094
v 18.728870 2.904944 14.983094
v -15.320214 -0.000000 18.728870
v -15.320214 -0.000000 18.354292
v -15.320214 2.904944 18.728870
v -15.320214 2.904944 18.354292
v -14.983094 2.904944 18.728870
v -14.983094 2.904944 18.354292
vt 0.084888 0.914979
vt 0.080590 0.921162
vt 0.085021 0.084888
vt 0.200668 0.084425
vt 0.676558 0.205595
vt 0.558806 0.205622
vt 0.441069 0.205639
vt 0.323338 0.205649
vt 0.799482 0.084455
vt 0.794353 0.205644
vt 0.915111 0.085021
vt 0.915575 0.200668
vt 0.205649 0.676662
vt 0.084455 0.200518
vt 0.205644 0.205647
vt 0.205595 0.323442
vt 0.205622 0.441194
vt 0.205639 0.558931
vt 0.915545 0.799482
vt 0.794356 0.794353
vt 0.794405 0.676558
vt 0.794378 0.558806
vt 0.794361 0.441069
vt 0.794351 0.323338
vt 0.084425 0.799332
vt 0.200518 0.915545
vt 0.205647 0.794356
vt 0.323442 0.794405
vt 0.441194 0.794378
vt 0.558931 0.794361
vt 0.676662 0.794351
vt 0.914979 0.915111
vt 0.799332 0.915575
vt 0.080019 0.000782
vt 0.080727 0.078702
vt 0.000000 0.199993
vt 0.000801 0.079808
vt 0.078159 0.200315
vt 0.200155 -0.000000
vt 0.200468 0.078129
vt 0.800007 0.000000
vt 0.920192 0.000801
vt 0.799685 0.078159
vt 0.999218 0.080019
vt 0.921298 0.080727
vt 0.000000 0.799845
vt 0.078129 0.799532
vt 1.000000 0.200155
vt 0.921871 0.200468
vt 0.199993 1.000000
vt 0.079808 0.999199
vt 0.200315 0.921841
vt 0.000782 0.919981
vt 0.078702 0.919273
vt 0.799845 1.000000
vt 0.799532 0.921871
vt 1.000000 0.800007
vt 0.999199 0.920192
vt 0.921841 0.799685
vt 0.919981 0.999218
vt 0.919273 0.921298
vt 0.078838 0.080590
vt 0.919410 0.078838
vt 0.921162 0.919410
vt 0.081960 0.081825
vt 0.200532 0.081278
vt 0.081308 0.200380
vt 0.799620 0.081308
vt 0.918175 0.081960
vt 0.918722 0.200532
vt 0.081278 0.799468
vt 0.918692 0.799620
vt 0.200380 0.918692
vt 0.081825 0.918040
vt 0.799468 0.918722
vt 0.918040 0.918175
vt 0.248868 0.297940
vt 0.230804 0.318015
vt 0.396013 0.466685
vt 0.413270 0.446772
vt 0.415212 0.483680
vt 0.432521 0.464764
vt 0.581690 0.298732
vt 0.561933 0.280947
vt 0.546274 0.298026
vt 0.566346 0.316095
vt 0.211887 0.300707
vt 0.229668 0.280947
vt 0.544708 0.229207
vt 0.380306 0.378039
vt 0.397563 0.397952
vt 0.562773 0.249282
vt 0.361055 0.396031
vt 0.378364 0.414947
vt 0.211887 0.229999
vt 0.227230 0.247362
vt 0.247303 0.229293
vt 0.231643 0.212214
vt 0.581690 0.231974
vt 0.563909 0.212214
vt 0.499955 0.212214
vt 0.277701 0.212214
vt 0.277701 0.234609
vt 0.499955 0.234609
vt 0.418787 0.689006
vt 0.640549 0.689006
vt 0.640582 0.666611
vt 0.418820 0.665966
vt 0.252061 0.212427
vt 0.252061 0.234397
vt 0.439627 0.616296
vt 0.465267 0.616508
vt 0.465266 0.594114
vt 0.439627 0.594326
vt 0.293743 0.281122
vt 0.320325 0.281122
vt 0.320325 0.259152
vt 0.293743 0.259152
vt 0.710791 0.538985
vt 0.687620 0.538985
vt 0.687824 0.561379
vt 0.710992 0.560954
vt 0.665296 0.616508
vt 0.688466 0.616296
vt 0.688466 0.594326
vt 0.665296 0.594114
vt 0.488088 0.540489
vt 0.488299 0.563528
vt 0.525594 0.212427
vt 0.525594 0.234397
vt 0.666189 0.688831
vt 0.666221 0.666861
vt 0.746713 0.258880
vt 0.773295 0.258880
vt 0.773295 0.236910
vt 0.746713 0.236909
vt 0.544708 0.366663
vt 0.380306 0.515494
vt 0.397563 0.535407
vt 0.562773 0.386737
vt 0.361055 0.533486
vt 0.378364 0.552402
vt 0.211887 0.367454
vt 0.227230 0.384817
vt 0.247302 0.366749
vt 0.231643 0.349670
vt 0.581690 0.369429
vt 0.563909 0.349670
vt 0.248868 0.435395
vt 0.230803 0.455470
vt 0.396013 0.604140
vt 0.413270 0.584227
vt 0.415212 0.621135
vt 0.432521 0.602219
vt 0.581689 0.436187
vt 0.561933 0.418403
vt 0.546274 0.435482
vt 0.566346 0.453550
vt 0.211887 0.438162
vt 0.229668 0.418403
vt 0.237526 0.621134
vt 0.237526 0.643528
vt 0.459781 0.643528
vt 0.459781 0.621134
vt 0.211887 0.643528
vt 0.211920 0.666568
vt 0.433682 0.665923
vt 0.433650 0.643528
vt 0.485420 0.643316
vt 0.485420 0.621346
vt 0.211887 0.689218
vt 0.211887 0.711188
vt 0.237526 0.711400
vt 0.237526 0.689006
vt 0.320359 0.258979
vt 0.320359 0.280950
vt 0.346941 0.280950
vt 0.346941 0.258979
vt 0.274158 0.237182
vt 0.274359 0.259152
vt 0.297530 0.259152
vt 0.297325 0.236758
vt 0.437555 0.689006
vt 0.437555 0.711400
vt 0.460725 0.711188
vt 0.460725 0.689218
vt 0.497062 0.257647
vt 0.496851 0.234609
vt 0.211887 0.621346
vt 0.211887 0.643316
vt 0.459321 0.665673
vt 0.459289 0.643703
vt 0.346974 0.258779
vt 0.346974 0.280749
vt 0.373556 0.280749
vt 0.373556 0.258779
vt 0.211887 0.760790
vt 0.211887 0.736095
vt 0.403402 0.736095
vt 0.403402 0.760790
vt 0.755684 0.455967
vt 0.755684 0.480662
vt 0.564169 0.480662
vt 0.564169 0.455967
vt 0.485577 0.641203
vt 0.485577 0.616508
vt 0.677093 0.616508
vt 0.677092 0.641203
vt 0.580490 0.324783
vt 0.580490 0.300089
vt 0.772005 0.300089
vt 0.772005 0.324783
vt 0.485577 0.665898
vt 0.485577 0.641203
vt 0.677092 0.641203
vt 0.677092 0.665898
vt 0.773261 0.349623
vt 0.773261 0.374318
vt 0.581745 0.374318
vt 0.581745 0.349623
vt 0.773261 0.418310
vt 0.773261 0.443004
vt 0.581745 0.443004
vt 0.581745 0.418310
vt 0.594985 0.738396
vt 0.594985 0.763091
vt 0.403470 0.763091
vt 0.403470 0.738396
vt 0.746645 0.256159
vt 0.746645 0.280854
vt 0.555130 0.280854
vt 0.555130 0.256159
vt 0.581745 0.236909
vt 0.581745 0.212214
vt 0.773261 0.212214
vt 0.773261 0.236909
vt 0.733337 0.480793
vt 0.733337 0.505488
vt 0.541822 0.505488
vt 0.541822 0.480793
vt 0.652485 0.689006
vt 0.652485 0.713701
vt 0.460970 0.713701
vt 0.460970 0.689006
vt 0.595053 0.780377
vt 0.595053 0.758152
vt 0.786568 0.758152
vt 0.786568 0.780377
vt 0.519474 0.530314
vt 0.519475 0.505619
vt 0.710990 0.505619
vt 0.710990 0.530314
vt 0.403402 0.666568
vt 0.403402 0.688794
vt 0.211887 0.688794
vt 0.211887 0.666568
vt 0.403402 0.711400
vt 0.403402 0.736095
vt 0.211887 0.736095
vt 0.211887 0.711400
vt 0.594985 0.763091
vt 0.594985 0.787786
vt 0.403470 0.787786
vt 0.403470 0.763091
vt 0.555130 0.418310
vt 0.555130 0.393615
vt 0.746645 0.393615
vt 0.746645 0.418310
vt 0.558394 0.349623
vt 0.558394 0.324928
vt 0.749909 0.324928
vt 0.749909 0.349623
vt 0.403402 0.760790
vt 0.403402 0.785485
vt 0.211887 0.785485
vt 0.211887 0.760790
vt 0.659014 0.563528
vt 0.659014 0.588223
vt 0.467499 0.588223
vt 0.467498 0.563528
vt 0.786569 0.735926
vt 0.786569 0.758152
vt 0.595053 0.758152
vt 0.595053 0.735926
vt 0.594985 0.713701
vt 0.594985 0.738396
vt 0.403470 0.738396
vt 0.403470 0.713701
vt 0.786569 0.713701
vt 0.786569 0.735926
vt 0.595053 0.735926
vt 0.595053 0.713701
vn 0.000000 1.000000 0.000000
vn 0.000000 1.000000 0.000000
vn 0.000000 1.000000 0.000000
vn 0.000000 1.000000 0.000000
vn 0.000000 1.000000 0.000000
vn 0.000000 1.000000 0.000000
vn 0.000000 1.000000 0.000000
vn 0.000000 1.000000 0.000000
vn 0.000000 1.000000 0.000000
vn 0.000000 1.000000 0.000000
vn 0.000000 1.000000 0.000000
vn 0.000000 1.000000 0.000000
vn 0.000000 1.000000 0.000000
vn 0.000000 1.000000 0.000000
vn 0.000000 1.000000 0.000000
vn 0.000000 1.000000 0.000000
vn 0.000000 1.000000 0.000000
vn 0.000000 1.000000 0.000000
vn 0.000000 1.000000 0.000000
vn 0.000000 1.000000 0.000000
vn 0.000000 1.000000 0.000000
vn 0.000000 1.000000 0.000000
vn 0.000000 1.000000 0.000000
vn 0.000000 1.000000 0.000000
vn 0.000000 1.000000 0.000000
vn 0.000000 1.000000 0.000000
vn 0.000000 1.000000 0.000000
vn 0.000000 1.000000 0.000000
vn 0.000000 1.000000 0.000000
vn 0.000000 1.000000 0.000000
vn 0.000000 1.000000 0.000000
vn 0.000000 1.000000 0.000000
vn 0.000000 1.000000 0.000000
vn 0.000000 1.000000 0.000000
vn 0.000000 1.000000 0.000000
vn 0.000000 1.000000 0.000000
vn -0.013838 0.999809 0.013838
vn -0.000002 0.923819 0.382829
vn -0.000000 0.923766 0.382957
vn -0.000000 0.999949 0.010139
vn 0.000002 0.382532 0.923942
vn 0.000000 0.011437 0.999935
vn 0.000000 0.014734 0.999891
vn 0.000000 0.382407 0.923994
vn -0.000000 0.999949 -0.010139
vn -0.000000 0.923766 -0.382957
vn -0.000002 0.923819 -0.382829
vn -0.013838 0.999809 -0.013838
vn 0.000000 0.382407 -0.923994
vn 0.000000 0.014734 -0.999891
vn 0.000000 0.011437 -0.999935
vn 0.000002 0.382532 -0.923942
vn -0.000000 1.000000 0.000000
vn -0.010139 0.999949 0.000000
vn 0.000000 1.000000 0.000000
vn 0.000000 1.000000 0.000000
vn 0.000000 1.000000 0.000000
vn 0.000000 1.000000 0.000000
vn 0.000000 0.999949 0.010139
vn 0.000000 1.000000 0.000000
vn 0.013838 0.999809 0.013838
vn 0.010139 0.999949 0.000000
vn -0.000000 1.000000 0.000000
vn -0.000000 1.000000 0.000000
vn -0.010139 0.999949 -0.000000
vn -0.000000 1.000000 0.000000
vn -0.000000 1.000000 0.000000
vn -0.000000 1.000000 0.000000
vn 0.010139 0.999949 -0.000000
vn 0.000000 1.000000 0.000000
vn 0.000000 1.000000 0.000000
vn 0.000000 1.000000 0.000000
vn 0.000000 1.000000 0.000000
vn 0.000000 1.000000 0.000000
vn 0.000000 0.999949 -0.010139
vn 0.000000 1.000000 0.000000
vn 0.000000 1.000000 0.000000
vn 0.000000 1.000000 0.000000
vn 0.000000 1.000000 0.000000
vn 0.013838 0.999808 -0.013838
vn 0.000000 0.000000 1.000000
vn 0.000000 0.000000 1.000000
vn -1.000000 0.000000 0.000000
vn -1.000000 0.000000 0.000000
vn -0.999935 0.011436 -0.000000
vn -0.999891 0.014733 -0.000000
vn 0.000000 0.000000 1.000000
vn -0.000000 0.014734 0.999891
vn 0.000000 0.000000 1.000000
vn -0.000000 0.011437 0.999935
vn 1.000000 0.000000 0.000000
vn 1.000000 0.000000 0.000000
vn 0.999891 0.014733 -0.000000
vn 0.999935 0.011436 -0.000000
vn -1.000000 0.000000 0.000000
vn -0.999891 0.014733 0.000000
vn 1.000000 0.000000 0.000000
vn 0.999891 0.014733 0.000000
vn 0.000000 0.000000 -1.000000
vn 0.000000 0.000000 -1.000000
vn -1.000000 0.000000 0.000000
vn -0.999935 0.011436 0.000000
vn 0.000000 0.000000 -1.000000
vn -0.000000 0.014734 -0.999891
vn 1.000000 0.000000 0.000000
vn 0.999935 0.011436 0.000000
vn 0.000000 0.000000 -1.000000
vn -0.000000 0.011437 -0.999935
vn -0.923947 0.382521 -0.000002
vn -0.923999 0.382396 -0.000000
vn -0.382828 0.923820 0.000002
vn -0.382959 0.923765 0.000000
vn 0.000000 0.923766 0.382957
vn -0.000000 0.382407 0.923994
vn -0.923999 0.382396 0.000000
vn -0.382959 0.923765 -0.000000
vn 0.000002 0.923819 0.382829
vn -0.000002 0.382532 0.923942
vn 0.382828 0.923820 0.000002
vn 0.382959 0.923765 0.000000
vn 0.923947 0.382522 -0.000002
vn 0.923999 0.382396 -0.000000
vn 0.382959 0.923765 -0.000000
vn 0.923999 0.382396 0.000000
vn 0.382827 0.923820 -0.000002
vn 0.923947 0.382522 0.000002
vn -0.000000 0.382407 -0.923994
vn 0.000000 0.923766 -0.382957
vn -0.923947 0.382522 0.000002
vn -0.382827 0.923820 -0.000002
vn -0.000001 0.382532 -0.923943
vn 0.000002 0.923819 -0.382829
vn 0.005427 0.999984 -0.001517
vn 0.003206 0.999991 0.002905
vn 0.006490 0.999979 0.000406
vn 0.005428 0.999984 -0.001516
vn 0.000446 0.999979 0.006533
vn 0.010232 0.999895 0.010233
vn -0.009156 0.999958 0.000000
vn -0.001683 0.999984 0.005427
vn -0.001685 0.999984 0.005426
vn -0.009156 0.999958 0.000000
vn 0.000000 0.999966 -0.008274
vn 0.000000 0.999966 -0.008274
vn 0.005427 -0.999984 -0.001517
vn 0.005428 -0.999984 -0.001516
vn 0.006490 -0.999979 0.000406
vn 0.003206 -0.999991 0.002905
vn 0.010232 -0.999895 0.010231
vn 0.000446 -0.999979 0.006533
vn -0.009156 -0.999958 0.000000
vn -0.009156 -0.999958 0.000000
vn -0.001685 -0.999984 0.005425
vn -0.001683 -0.999984 0.005427
vn 0.000000 -0.999966 -0.008274
vn 0.000000 -0.999966 -0.008274
vn 1.000000 0.000000 -0.000845
vn 1.000000 0.000000 -0.000845
vn 1.000000 0.000000 0.000845
vn 1.000000 0.000000 0.000845
vn -0.999996 0.000000 0.002989
vn -0.999996 0.000000 0.002989
vn -0.999998 0.000000 0.001853
vn -0.999998 0.000000 0.001853
vn 0.999966 0.000000 0.008279
vn 0.999966 0.000000 0.008279
vn 0.008276 0.000000 0.999966
vn 0.008276 0.000000 0.999966
vn 0.000928 0.000000 1.000000
vn 0.000928 0.000000 1.000000
vn -1.000000 0.000000 0.000014
vn -1.000000 0.000000 0.000014
vn -1.000000 0.000000 0.000014
vn -1.000000 0.000000 0.000014
vn -0.009155 0.000000 -0.999958
vn -0.009155 0.000000 -0.999958
vn 0.002060 0.000000 -0.999998
vn 0.002060 0.000000 -0.999998
vn -0.000938 0.000000 1.000000
vn -0.000938 0.000000 1.000000
vn -0.009158 0.000000 0.999958
vn -0.009158 0.000000 0.999958
vn 0.003323 0.000000 -0.999995
vn 0.003323 0.000000 -0.999995
vn 0.999966 0.000000 -0.008279
vn 0.999966 0.000000 -0.008279
vn -0.999966 0.000000 -0.008274
vn -0.999966 0.000000 -0.008274
vn 0.000000 0.000000 -1.000000
vn 0.000000 0.000000 -1.000000
vn 0.000000 0.000000 -1.000000
vn 0.000000 0.000000 -1.000000
vn -0.005427 0.999984 -0.001517
vn -0.005428 0.999984 -0.001516
vn -0.006490 0.999979 0.000406
vn -0.003206 0.999991 0.002905
vn -0.010232 0.999895 0.010232
vn -0.000446 0.999979 0.006533
vn 0.009156 0.999958 0.000001
vn 0.009156 0.999958 0.000001
vn 0.001685 0.999984 0.005426
vn 0.001683 0.999984 0.005427
vn 0.000000 0.999966 -0.008274
vn 0.000000 0.999966 -0.008274
vn -0.005427 -0.999984 -0.001517
vn -0.003206 -0.999991 0.002905
vn -0.006490 -0.999979 0.000406
vn -0.005428 -0.999984 -0.001515
vn -0.000446 -0.999979 0.006533
vn -0.010232 -0.999895 0.010231
vn 0.009156 -0.999958 -0.000000
vn 0.001683 -0.999984 0.005427
vn 0.001685 -0.999984 0.005426
vn 0.009156 -0.999958 -0.000000
vn 0.000000 -0.999966 -0.008274
vn 0.000000 -0.999966 -0.008274
vn -1.000000 0.000000 -0.000845
vn -1.000000 0.000000 0.000845
vn -1.000000 0.000000 0.000845
vn -1.000000 0.000000 -0.000845
vn 0.999996 0.000000 0.002989
vn 0.999998 0.000000 0.001853
vn 0.999998 0.000000 0.001853
vn 0.999996 0.000000 0.002989
vn -0.999966 0.000000 0.008279
vn -0.999966 0.000000 0.008279
vn -0.008276 0.000000 0.999966
vn -0.000928 0.000000 1.000000
vn -0.000928 0.000000 1.000000
vn -0.008276 0.000000 0.999966
vn 1.000000 0.000000 0.000014
vn 1.000000 0.000000 0.000014
vn 1.000000 0.000000 0.000014
vn 1.000000 0.000000 0.000014
vn 0.009154 0.000000 -0.999958
vn -0.002060 0.000000 -0.999998
vn -0.002060 0.000000 -0.999998
vn 0.009154 0.000000 -0.999958
vn 0.000938 0.000000 1.000000
vn 0.009158 0.000000 0.999958
vn 0.009158 0.000000 0.999958
vn 0.000938 0.000000 1.000000
vn -0.003323 0.000000 -0.999995
vn -0.003323 0.000000 -0.999995
vn -0.999966 0.000000 -0.008279
vn -0.999966 0.000000 -0.008279
vn 0.999966 0.000000 -0.008274
vn 0.999966 0.000000 -0.008274
vn 0.000000 0.000000 -1.000000
vn 0.000000 0.000000 -1.000000
vn 0.000000 0.000000 -1.000000
vn 0.000000 0.000000 -1.000000
vn -1.000000 0.000000 0.000000
vn -1.000000 0.000000 0.000000
vn -1.000000 0.000000 0.000000
vn -1.000000 0.000000 0.000000
vn 0.000000 0.000000 1.000000
vn 0.000000 0.000000 1.000000
vn 0.000000 0.000000 1.000000
vn 0.000000 0.000000 1.000000
vn 1.000000 0.000000 0.000000
vn 1.000000 0.000000 0.000000
vn 1.000000 0.000000 0.000000
vn 1.000000 0.000000 0.000000
vn -0.000007 0.000000 -1.000000
vn -0.000007 0.000000 -1.000000
vn -0.000007 0.000000 -1.000000
vn -0.000007 0.000000 -1.000000
vn 0.000000 0.000000 1.000000
vn 0.000000 0.000000 1.000000
vn 0.000000 0.000000 1.000000
vn 0.000000 0.000000 1.000000
vn 1.000000 0.000000 -0.000005
vn 1.000000 0.000000 -0.000005
vn 1.000000 0.000000 -0.000005
vn 1.000000 0.000000 -0.000005
vn 0.000000 0.000000 -1.000000
vn 0.000000 0.000000 -1.000000
vn 0.000000 0.000000 -1.000000
vn 0.000000 0.000000 -1.000000
vn -1.000000 0.000000 0.000000
vn -1.000000 0.000000 0.000000
vn -1.000000 0.000000 0.000000
vn -1.000000 0.000000 0.000000
vn 0.000000 0.000000 1.000000
vn 0.000000 0.000000 1.000000
vn 0.000000 0.000000 1.000000
vn 0.000000 0.000000 1.000000
vn 1.000000 0.000000 0.000000
vn 1.000000 0.000000 0.000000
vn 1.000000 0.000000 0.000000
vn 1.000000 0.000000 0.000000
vn 0.000007 0.000000 -1.000000
vn 0.000007 0.000000 -1.000000
vn 0.000007 0.000000 -1.000000
vn 0.000007 0.000000 -1.000000
vn -1.000000 0.000000 0.000000
vn -1.000000 0.000000 0.000000
vn -1.000000 0.000000 0.000000
vn -1.000000 0.000000 0.000000
vn 0.000000 0.000000 1.000000
vn 0.000000 0.000000 1.000000
vn 0.000000 0.000000 1.000000
vn 0.000000 0.000000 1.000000
vn 1.000000 0.000000 -0.000003
vn 1.000000 0.000000 -0.000003
vn 1.000000 0.000000 -0.000003
vn 1.000000 0.000000 -0.000003
vn 0.000000 0.000000 -1.000000
vn 0.000000 0.000000 -1.000000
vn 0.000000 0.000000 -1.000000
vn 0.000000 0.000000 -1.000000
vn -1.000000 0.000000 0.000010
vn -1.000000 0.000000 0.000010
vn -1.000000 0.000000 0.000010
vn -1.000000 0.000000 0.000010
vn 0.000000 0.000000 -1.000000
vn 0.000000 0.000000 -1.000000
vn 0.000000 0.000000 -1.000000
vn 0.000000 0.000000 -1.000000
vn -1.000000 0.000000 0.000000
vn -1.000000 0.000000 0.000000
vn -1.000000 0.000000 0.000000
vn -1.000000 0.000000 0.000000
vn 0.000000 0.000000 1.000000
vn 0.000000 0.000000 1.000000
vn 0.000000 0.000000 1.000000
vn 0.000000 0.000000 1.000000
vn 1.000000 0.000000 0.000000
vn 1.000000 0.000000 0.000000
vn 1.000000 0.000000 0.000000
vn 1.000000 0.000000 0.000000
vn -1.000000 0.000000 0.000000
vn -1.000000 0.000000 0.000000
vn -1.000000 0.000000 0.000000
vn -1.000000 0.000000 0.000000
vn 0.000000 0.000000 1.000000
vn 0.000000 0.000000 1.000000
vn 0.000000 0.000000 1.000000
vn 0.000000 0.000000 1.000000
vn 1.000000 0.000000 0.000000
vn 1.000000 0.000000 0.000000
vn 1.000000 0.000000 0.000000
vn 1.000000 0.000000 0.000000
vn 0.000000 0.000000 -1.000000
vn 0.000000 0.000000 -1.000000
vn 0.000000 0.000000 -1.000000
vn 0.000000 0.000000 -1.000000
s 1
g pPlane6
usemtl initialShadingGroup
f 6//1 7//2 14//3 13//4
f 7//2 8//5 15//6 14//3
f 8//5 9//7 16//8 15//6
f 9//7 10//9 17//10 16//8
f 10//9 11//11 18//12 17//10
f 13//4 14//3 20//13 19//14
f 14//3 15//6 21//15 20//13
f 15//6 16//8 22//16 21//15
f 16//8 17//10 23//17 22//16
f 17//10 18//12 24//18 23//17
f 19//14 20//13 26//19 25//20
f 20//13 21//15 27//21 26//19
f 21//15 22//16 28//22 27//21
f 22//16 23//17 29//23 28//22
f 23//17 24//18 30//24 29//23
f 25//20 26//19 32//25 31//26
f 26//19 27//21 33//27 32//25
f 27//21 28//22 34//28 33//27
f 28//22 29//23 35//29 34//28
f 29//23 30//24 36//30 35//29
f 31//26 32//25 39//31 38//32
f 32//25 33//27 40//33 39//31
f 33//27 34//28 41//34 40//33
f 34//28 35//29 42//35 41//34
f 35//29 36//30 43//36 42//35
s 2
f 71/3/37 70/65/38 73/66/39 72/4/40
s 3
f 70/65/41 69/35/42 74/40/43 73/66/44
s 2
f 95/26/45 94/73/46 97/74/47 96/1/48
s 5
f 94/73/49 93/52/50 98/2/51 97/74/52
s 2
f 71/3/37 72/4/40 49/15/53 77/14/54
f 51/5/55 50/6/56 52/7/57 53/8/58 49/15/53 72/4/40 78/9/59 54/10/60
f 78/9/59 81/11/61 84/12/62 54/10/60
f 55/13/63 56/27/64 89/25/65 77/14/54 49/15/53 57/16/66 58/17/67 59/18/68
f 84/12/62 90/19/69 60/20/70 61/21/71 62/22/72 63/23/73 64/24/74 54/10/60
f 89/25/65 56/27/64 95/26/45 96/1/48
f 101/33/75 95/26/45 56/27/64 65/28/76 66/29/77 67/30/78 68/31/79 60/20/70
f 60/20/70 90/19/69 102/32/80 101/33/75
s 3
f 1/34/81 2/39/82 74/40/43 69/35/42
s 6
f 5/36/83 1/37/84 69/62/85 75/38/86
s 3
f 2/39/82 3/41/87 80/43/88 74/40/43
f 3/41/87 4/42/89 83/63/90 80/43/88
s 7
f 4/44/91 12/48/92 86/49/93 83/45/94
s 6
f 37/46/95 5/36/83 75/38/86 87/47/96
s 7
f 12/48/92 44/57/97 92/59/98 86/49/93
s 5
f 46/50/99 45/51/100 98/2/51 93/52/50
s 6
f 45/53/101 37/46/95 87/47/96 98/54/102
s 5
f 47/55/103 46/50/99 93/52/50 99/56/104
s 7
f 44/57/97 48/58/105 104/64/106 92/59/98
s 5
f 48/60/107 47/55/103 99/56/104 104/61/108
s 6
f 69/62/85 70/65/109 76/67/110 75/38/86
s 2
f 70/65/111 71/3/37 77/14/54 76/67/112
f 72/4/40 73/66/39 79/68/113 78/9/59
s 3
f 73/66/44 74/40/43 80/43/88 79/68/114
s 6
f 75/38/86 76/67/110 88/71/115 87/47/96
s 2
f 76/67/112 77/14/54 89/25/65 88/71/116
f 78/9/59 79/68/113 82/69/117 81/11/61
s 3
f 79/68/114 80/43/88 83/63/90 82/69/118
s 2
f 81/11/61 82/69/119 85/70/120 84/12/62
s 7
f 82/69/121 83/45/94 86/49/93 85/70/122
s 2
f 84/12/62 85/70/120 91/72/123 90/19/69
s 7
f 85/70/122 86/49/93 92/59/98 91/72/124
s 2
f 90/19/69 91/72/123 103/76/125 102/32/80
s 7
f 91/72/124 92/59/98 104/64/106 103/76/126
s 5
f 93/52/50 94/73/49 100/75/127 99/56/104
s 2
f 94/73/46 95/26/45 101/33/75 100/75/128
s 6
f 87/47/96 88/71/115 97/74/129 98/54/102
s 2
f 88/71/116 89/25/65 96/1/48 97/74/130
s 5
f 99/56/104 100/75/127 103/76/131 104/61/108
s 2
f 100/75/128 101/33/75 102/32/80 103/76/132
s 8
f 105/77/133 108/80/134 107/79/135 106/78/136
f 108/80/134 110/82/137 109/81/138 107/79/135
f 111/83/139 114/86/140 113/85/141 112/84/142
f 113/85/141 114/86/140 110/82/137 108/80/134
f 115/87/143 116/88/144 105/77/133 106/78/136
s 9
f 117/89/145 120/92/146 119/91/147 118/90/148
f 118/90/148 119/91/147 122/94/149 121/93/150
f 123/95/151 126/98/152 125/97/153 124/96/154
f 125/97/153 118/90/148 121/93/150 124/96/154
f 128/99/155 120/92/146 117/89/145 127/100/156
s 10
f 120/101/157 106/104/158 107/103/159 119/102/160
s 11
f 118/105/161 108/108/162 105/107/163 117/106/164
s 10
f 119/102/160 107/103/159 109/110/165 122/109/166
s 12
f 122/111/167 109/114/168 110/113/169 121/112/170
s off
f 123/115/171 111/118/172 112/117/173 126/116/174
s 13
f 126/119/175 112/122/176 113/121/177 125/120/178
s 12
f 124/123/179 114/126/180 111/125/181 123/124/182
s 13
f 125/120/178 113/121/177 108/128/183 118/127/184
s 12
f 121/112/170 110/113/169 114/126/180 124/123/179
s 10
f 128/129/185 115/130/186 106/104/158 120/101/157
s 11
f 117/106/164 105/107/163 116/132/187 127/131/188
s off
f 127/133/189 116/136/190 115/135/191 128/134/192
s 14
f 129/137/193 130/140/194 131/139/195 132/138/196
f 132/138/196 131/139/195 133/142/197 134/141/198
f 135/143/199 136/146/200 137/145/201 138/144/202
f 137/145/201 132/138/196 134/141/198 138/144/202
f 139/147/203 130/140/194 129/137/193 140/148/204
s 15
f 141/149/205 142/152/206 143/151/207 144/150/208
f 142/152/206 145/154/209 146/153/210 143/151/207
f 147/155/211 148/158/212 149/157/213 150/156/214
f 149/157/213 148/158/212 145/154/209 142/152/206
f 152/159/215 151/160/216 141/149/205 144/150/208
s 16
f 144/161/217 143/164/218 131/163/219 130/162/220
s 17
f 142/165/221 141/168/222 129/167/223 132/166/224
s 16
f 143/164/218 146/170/225 133/169/226 131/163/219
s 18
f 146/171/227 145/174/228 134/173/229 133/172/230
s off
f 147/175/231 150/178/232 136/177/233 135/176/234
s 19
f 150/179/235 149/182/236 137/181/237 136/180/238
s 18
f 148/183/239 147/186/240 135/185/241 138/184/242
s 19
f 149/182/236 142/188/243 132/187/244 137/181/237
s 18
f 145/174/228 148/183/239 138/184/242 134/173/229
s 16
f 152/189/245 144/161/217 130/162/220 139/190/246
s 17
f 141/168/222 151/192/247 140/191/248 129/167/223
s off
f 151/193/249 152/196/250 139/195/251 140/194/252
f 167/197/253 168/198/254 176/199/255 175/200/256
f 168/201/257 156/202/258 177/203/259 176/204/260
f 156/205/261 161/206/262 178/207/263 177/208/264
f 161/209/265 167/210/266 175/211/267 178/212/268
f 157/213/269 163/214/270 180/215/271 179/216/272
f 163/217/273 171/218/274 181/219/275 180/220/276
f 171/221/277 174/222/278 182/223/279 181/224/280
f 174/225/281 157/226/282 179/227/283 182/228/284
f 153/229/285 165/230/286 184/231/287 183/232/288
f 165/233/289 164/234/290 185/235/291 184/236/292
f 164/237/293 162/238/294 186/239/295 185/240/296
f 162/241/297 153/242/298 183/243/299 186/244/300
f 155/245/301 169/246/302 188/247/303 187/248/304
f 169/249/305 170/250/306 189/251/307 188/252/308
f 170/253/309 160/254/310 190/255/311 189/256/312
f 160/257/313 155/258/314 187/259/315 190/260/316
f 173/261/317 172/262/318 191/263/319 192/264/320
f 172/265/321 166/266/322 193/267/323 191/268/324
f 166/269/325 158/270/326 194/271/327 193/272/328
f 158/273/329 173/274/330 192/275/331 194/276/332
f 196/277/333 195/278/334 197/279/335 198/280/336
f 195/281/337 154/282/338 199/283/339 197/284/340
f 154/285/341 159/286/342 200/287/343 199/288/344
f 159/289/345 196/290/346 198/291/347 200/292/348
