# This file uses centimeters as units for non-parametric coordinates.

mtllib Zelt.mtl
g default
v -11.446402 -8.054989 53.366768
v 11.446402 -8.054989 53.366768
v -0.000069 6.920281 51.342942
v 0.000069 6.920281 51.342942
v -0.000069 6.920281 32.073188
v 0.000069 6.920281 32.073188
v -11.446402 -8.054989 30.049364
v 11.446402 -8.054989 30.049364
v -8.451356 -7.508644 52.885678
v 8.451356 -7.508644 52.885678
v 0.000053 4.201414 51.353193
v -0.000053 4.201414 51.353193
v -8.416563 -7.510892 52.518311
v 8.416563 -7.510892 52.518311
v 0.000053 4.201521 51.072927
v -0.000053 4.201521 51.072927
v -9.204747 -7.838597 52.439186
v 9.204747 -7.838597 52.439186
v 0.000059 4.748624 51.066977
v -0.000059 4.748624 51.066977
v -8.448213 -7.854901 31.224501
v 8.448213 -7.854901 31.224501
v 0.000060 4.574623 33.149873
v -0.000060 4.574623 33.149873
v -0.000069 6.616108 49.655131
v -0.000069 6.076966 45.627684
v -0.000069 5.903840 41.567981
v -0.000069 6.098148 37.509239
v -0.000069 6.658297 33.484653
v 0.000069 6.658318 33.484538
v 0.000069 6.098160 37.509186
v 0.000069 5.903850 41.567981
v 0.000069 6.076978 45.627737
v 0.000069 6.616127 49.655246
v -11.174904 -8.054989 32.038198
v -10.573621 -8.054989 37.077252
v -10.169201 -8.054989 41.600304
v -10.548044 -8.054989 46.104121
v -11.116369 -8.054989 51.091683
v 11.067398 -8.054989 50.844629
v 10.525807 -8.054989 45.899013
v 10.181670 -8.054989 41.410553
v 10.596271 -8.054989 36.869811
v 11.226672 -8.054989 31.783919
v -9.060893 -7.841979 50.707447
v -8.679439 -7.850947 45.956774
v -8.555637 -7.853857 41.586727
v -8.511239 -7.854901 37.300272
v -8.511239 -7.854901 33.013181
v 8.511239 -7.854901 32.854289
v 8.511239 -7.854901 37.141566
v 8.549159 -7.854010 41.427599
v 8.669488 -7.851181 45.790638
v 9.044486 -7.842365 50.523108
v 0.000060 4.545263 33.293788
v 0.000060 3.969927 37.460601
v 0.000059 3.784555 41.570026
v 0.000059 3.936525 45.640852
v 0.000059 4.486479 49.670967
v -0.000060 4.545470 33.292821
v -0.000060 3.970054 37.460120
v -0.000059 3.784651 41.570026
v -0.000059 3.936638 45.641328
v -0.000059 4.486654 49.671915
v 0.811898 2.877422 33.062592
v 2.015723 0.566963 32.826791
v 3.365161 -1.627250 32.780917
v 4.850343 -3.700392 32.172284
v 6.486548 -5.733368 32.153843
v -6.346350 -5.563576 32.160089
v -4.717911 -3.445494 32.259199
v -3.298956 -1.489632 32.828225
v -1.989425 0.634769 32.854659
v -0.818839 2.870764 33.071172
v -1.863156 3.190184 32.056488
v -3.039984 1.105663 31.902887
v -4.461960 -0.954239 31.614880
v -6.178534 -3.019445 31.208968
v -8.186679 -5.115503 30.770657
v 8.188261 -5.118641 30.768714
v 6.178604 -3.019520 31.208968
v 4.461988 -0.954268 31.614880
v 3.039988 1.105660 31.902887
v 1.863150 3.190195 32.056488
v 1.872420 3.147468 51.407616
v 3.067978 1.007334 51.603549
v 4.515170 -1.106168 51.921663
v 6.252040 -3.195613 52.332158
v 8.245788 -5.237598 52.724564
v 6.409069 -5.338519 52.565533
v 4.576242 -3.240104 52.157954
v 2.999976 -1.123445 51.792523
v 1.663191 0.988482 51.519505
v 0.527102 3.125478 51.379212
v -8.245879 -5.237696 52.724564
v -6.252091 -3.195667 52.332158
v -4.515191 -1.106189 51.921663
v -3.067981 1.007331 51.603549
v -1.872416 3.147476 51.407616
v -0.527102 3.125478 51.379212
v -1.663191 0.988482 51.519505
v -2.999976 -1.123445 51.792523
v -4.576242 -3.240104 52.157954
v -6.409069 -5.338519 52.565533
v 6.401795 -5.341492 52.240135
v 4.572179 -3.242017 51.847275
v 2.998283 -1.125123 51.495877
v 1.662725 0.986749 51.233593
v 0.527103 3.125477 51.100023
v -0.527103 3.125477 51.100023
v -1.662591 0.986092 51.232827
v -2.997758 -1.126230 51.494163
v -4.570390 -3.243773 51.843309
v -6.401795 -5.341492 52.240135
v 6.874845 -5.318430 52.257914
v 4.993000 -3.237099 51.876486
v 3.364844 -1.129321 51.518942
v 1.985070 0.981597 51.248049
v 0.816556 3.123170 51.105003
v -0.816548 3.123185 51.105003
v -1.984892 0.980852 51.247181
v -3.364110 -1.130773 51.516734
v -4.991964 -3.238155 51.874257
v -6.874952 -5.318550 52.257914
v 1.981855 2.715505 49.672082
v 3.075614 0.804705 49.794563
v 4.380163 -1.074402 49.991993
v 5.920271 -2.923547 50.245873
v 7.684722 -4.722603 50.505152
v -1.989848 2.747030 33.461924
v -3.075340 0.855974 33.328788
v -4.374020 -1.014122 33.107874
v -5.916856 -2.871291 32.815160
v -7.700097 -4.707999 32.502815
v 6.338446 -4.895627 50.364796
v 4.702852 -3.047775 50.161159
v 3.250806 -1.162978 49.947142
v 1.997091 0.744044 49.779634
v 0.921734 2.685670 49.692144
v -0.921414 2.685749 49.717096
v -1.997242 0.742745 49.830357
v -3.252634 -1.161651 50.026666
v -4.705712 -3.046947 50.267011
v -6.346345 -4.893045 50.502357
v 7.703572 -4.703569 32.341497
v 5.918359 -2.867925 32.683415
v 4.374429 -1.012238 33.004620
v 3.075274 0.857192 33.252228
v 1.989512 2.747862 33.411008
v -7.696283 -4.733212 50.674846
v -5.926768 -2.931340 50.384385
v -4.382615 -1.078276 50.098814
v -3.076266 0.803361 49.872657
v -1.981718 2.716575 49.723354
v 0.989553 2.541193 33.184597
v 2.106648 0.445966 33.070576
v 3.362587 -1.559978 32.996971
v 4.738705 -3.441707 32.966087
v 6.232885 -5.231776 32.941843
v -6.142435 -5.125194 33.071075
v -4.647125 -3.247880 33.148564
v -3.330330 -1.475780 33.123667
v -2.115815 0.441362 33.142378
v -1.025253 2.467991 33.204759
v -7.342397 -4.791176 45.915870
v -5.643613 -2.991568 45.833265
v -4.167513 -1.123130 45.769066
v -2.885829 0.767853 45.717799
v -1.790576 2.696718 45.698053
v -7.120936 -4.871058 41.584525
v -5.524055 -3.064858 41.585521
v -4.087040 -1.180341 41.586666
v -2.824771 0.750209 41.587435
v -1.724018 2.687392 41.587827
v -7.361503 -4.785662 37.238191
v -5.676840 -2.967765 37.312929
v -4.183348 -1.101365 37.392349
v -2.893137 0.783071 37.455655
v -1.796172 2.702616 37.481090
v 7.367517 -4.781913 37.129196
v 5.652806 -2.986610 37.229422
v 4.174936 -1.114754 37.301851
v 2.892294 0.778325 37.361285
v 1.798934 2.704777 37.384402
v 7.124620 -4.869569 41.483398
v 5.525510 -3.063710 41.486030
v 4.086660 -1.180742 41.488882
v 2.825126 0.750436 41.490867
v 1.724640 2.687783 41.492135
v 7.336519 -4.794736 45.807922
v 5.661624 -2.976529 45.744413
v 4.173142 -1.112056 45.675530
v 2.885461 0.772722 45.621677
v 1.787775 2.695861 45.601133
v 6.015020 -4.953568 45.747142
v 4.458015 -3.130575 45.719078
v 3.043706 -1.241132 45.677654
v 1.794272 0.697243 45.651418
v 0.691935 2.645147 45.638182
v 5.903989 -4.982228 41.515035
v 4.387489 -3.161373 41.510908
v 2.994524 -1.253984 41.507821
v 1.741056 0.688560 41.505299
v 0.629501 2.630599 41.502766
v 0.758787 2.543627 37.316113
v 1.857576 0.605440 37.322412
v 3.081065 -1.265317 37.339128
v 4.459969 -3.183856 37.327522
v 5.962360 -5.009570 37.332597
v -0.694784 2.646929 45.708388
v -1.795907 0.698272 45.722409
v -3.046789 -1.236041 45.752745
v -4.460237 -3.128615 45.794270
v -6.017867 -4.952430 45.823620
v -0.628239 2.628521 41.571832
v -1.740304 0.688051 41.575096
v -2.994179 -1.254195 41.578519
v -4.387309 -3.161160 41.582498
v -5.903938 -4.982159 41.587339
v -0.752943 2.570854 37.401389
v -1.847827 0.651257 37.412684
v -3.079781 -1.264204 37.412219
v -4.459325 -3.182778 37.401363
v -5.962204 -5.009382 37.406865
v -0.102898 3.201199 32.074935
v -0.103103 1.129338 32.055851
v -0.103712 -0.859470 31.998925
v -0.104447 -2.776925 31.929472
v -0.105070 -4.609448 31.581277
v -0.105584 -8.054989 30.449959
v -0.102905 6.714596 32.073188
vt 0.407360 0.484058
vt 0.625000 0.271896
vt 0.375000 0.978594
vt 0.625000 0.766515
vt 0.500000 0.313421
vt 0.488191 0.319413
vt 0.625000 0.750000
vt 0.375000 0.768805
vt 0.500000 0.250000
vt 0.625000 0.481689
vt 0.375000 0.500000
vt 0.625000 0.976313
vt 0.625000 1.000000
vt 0.375000 1.000000
vt 0.431596 0.348128
vt 0.375000 0.376843
vt 0.391180 0.430450
vt 0.625000 0.429266
vt 0.625000 0.376843
vt 0.625000 0.324369
vt 0.375000 0.821252
vt 0.375000 0.873700
vt 0.375000 0.926147
vt 0.625000 0.923864
vt 0.625000 0.871414
vt 0.625000 0.818964
vt 0.375000 0.706417
vt 0.625000 0.567177
vt 0.625000 0.000000
vt 0.375000 0.049625
vt 0.624996 0.500003
vt 0.625000 0.500000
vt 0.508172 0.567178
vt 0.625000 0.000000
vt 0.625000 0.043504
vt 0.375000 0.250000
vt 0.375000 0.225374
vt 0.625000 0.000000
vt 0.625000 0.043504
vt 0.375000 0.250000
vt 0.375000 0.225374
vt 0.625000 0.000000
vt 0.625000 0.047195
vt 0.375000 0.250000
vt 0.375000 0.215390
vt 0.648687 0.000000
vt 0.625000 0.043585
vt 0.125000 0.000000
vt 0.143805 0.000000
vt 0.125000 0.043583
vt 0.625000 0.000000
vt 0.625000 0.056240
vt 0.375000 0.250000
vt 0.375000 0.211013
vt 0.856689 0.250000
vt 0.875000 0.182823
vt 0.875000 0.250000
vt 0.353103 0.250000
vt 0.375000 0.182823
vt 0.625000 0.000000
vt 0.625000 0.046449
vt 0.375000 0.250000
vt 0.375000 0.216303
vt 0.300630 0.250000
vt 0.353243 0.178937
vt 0.248157 0.250000
vt 0.301395 0.185641
vt 0.195735 0.250000
vt 0.248426 0.187958
vt 0.143312 0.250000
vt 0.195503 0.185381
vt 0.804266 0.250000
vt 0.857204 0.178436
vt 0.751843 0.250000
vt 0.805752 0.185339
vt 0.699369 0.250000
vt 0.752809 0.187948
vt 0.646896 0.250000
vt 0.699854 0.185681
vt 0.625000 0.000000
vt 0.619320 0.062892
vt 0.613999 0.011728
vt 0.624867 0.061342
vt 0.614258 0.011239
vt 0.625000 0.051665
vt 0.625000 -0.000000
vt 0.620184 0.061471
vt 0.402263 0.011345
vt 0.375000 0.056224
vt 0.375000 0.000000
vt 0.458101 0.062342
vt 0.398938 0.011643
vt 0.375184 0.061189
vt 0.375000 -0.000000
vt 0.455163 0.061895
vt 0.625000 0.216622
vt 0.375000 0.250000
vt 0.625000 0.706419
vt 0.375000 0.750000
vt 0.625000 0.182823
vt 0.625000 0.250000
vt 0.375000 0.043583
vt 0.375000 0.000000
vt 0.625000 0.225373
vt 0.625000 0.250000
vt 0.375000 0.043504
vt 0.375000 0.000000
vt 0.625000 0.225373
vt 0.625000 0.250000
vt 0.375000 0.043502
vt 0.375000 0.000000
vt 0.647405 0.178923
vt 0.625000 0.250000
vt 0.143453 0.178423
vt 0.125000 0.250000
vt 0.625000 0.215389
vt 0.625000 0.250000
vt 0.375000 0.047193
vt 0.375000 0.000000
vt 0.858119 0.050964
vt 0.875000 0.000000
vt 0.353494 0.051178
vt 0.375000 0.000000
vt 0.625000 0.209311
vt 0.625000 0.250000
vt 0.375000 0.053728
vt 0.375000 -0.000000
vt 0.300173 0.053968
vt 0.353594 0.000000
vt 0.248481 0.054913
vt 0.301147 0.000000
vt 0.196805 0.053855
vt 0.248700 0.000000
vt 0.143704 0.050976
vt 0.196252 0.000000
vt 0.804449 0.053852
vt 0.858485 0.000000
vt 0.752756 0.054915
vt 0.806036 0.000000
vt 0.701076 0.053978
vt 0.753586 0.000000
vt 0.648320 0.051188
vt 0.701136 0.000000
vt 0.625000 0.210995
vt 0.636154 0.224256
vt 0.633554 0.199367
vt 0.625000 0.250000
vt 0.634886 0.197847
vt 0.625000 0.250000
vt 0.625023 0.223287
vt 0.637896 0.224613
vt 0.607141 0.199359
vt 0.375000 0.250000
vt 0.375009 0.223420
vt 0.636454 0.224263
vt 0.606183 0.197867
vt 0.375000 0.250000
vt 0.375000 0.207864
vt 0.638116 0.224617
vt 0.125000 0.182823
vt 0.875000 0.043581
vt 0.595086 0.163522
vt 0.625000 0.126740
vt 0.614042 0.080654
vt 0.392195 0.082500
vt 0.375000 0.126740
vt 0.420162 0.164272
vt 0.125000 0.144535
vt 0.441587 0.605465
vt 0.125000 0.106246
vt 0.375000 0.643754
vt 0.125000 0.074915
vt 0.375000 0.675085
vt 0.875000 0.074914
vt 0.625000 0.675086
vt 0.875000 0.106246
vt 0.625000 0.643754
vt 0.875000 0.144535
vt 0.625000 0.605465
vt 0.634606 0.151157
vt 0.625000 0.106246
vt 0.634015 0.072751
vt 0.628139 0.085880
vt 0.625000 0.126917
vt 0.628875 0.166527
vt 0.368390 0.073462
vt 0.375000 0.106246
vt 0.369161 0.148739
vt 0.375620 0.168679
vt 0.375000 0.126917
vt 0.373657 0.085516
vt 0.627564 0.086168
vt 0.625000 0.126917
vt 0.628243 0.167719
vt 0.377634 0.169425
vt 0.375000 0.126917
vt 0.375244 0.085992
vt 0.627065 0.083354
vt 0.625000 0.123951
vt 0.627746 0.165374
vt 0.379818 0.167217
vt 0.375000 0.123951
vt 0.377182 0.082733
vt 0.650261 0.145356
vt 0.647908 0.108634
vt 0.650852 0.079177
vt 0.143566 0.143161
vt 0.143591 0.108296
vt 0.143669 0.079545
vt 0.625377 0.090505
vt 0.625000 0.126814
vt 0.626378 0.165848
vt 0.394510 0.166426
vt 0.375000 0.126812
vt 0.385644 0.090080
vt 0.857891 0.079513
vt 0.857707 0.108296
vt 0.857414 0.143164
vt 0.351621 0.079411
vt 0.353381 0.108634
vt 0.351434 0.144921
vt 0.598125 0.161123
vt 0.625000 0.124274
vt 0.615130 0.085255
vt 0.392535 0.086433
vt 0.375000 0.124272
vt 0.418229 0.160693
vt 0.300365 0.083299
vt 0.300913 0.113140
vt 0.300968 0.149145
vt 0.248446 0.084546
vt 0.248451 0.114667
vt 0.248420 0.150903
vt 0.196398 0.083194
vt 0.196018 0.112956
vt 0.195747 0.148784
vt 0.804859 0.083190
vt 0.805236 0.112956
vt 0.805510 0.148762
vt 0.752803 0.084543
vt 0.752786 0.114667
vt 0.752826 0.150905
vt 0.700998 0.083274
vt 0.700337 0.113140
vt 0.700368 0.149218
vt 0.623081 0.094071
vt 0.625808 0.125015
vt 0.628892 0.164183
vt 0.624473 0.097290
vt 0.625000 0.135070
vt 0.625589 0.175954
vt 0.626567 0.162463
vt 0.626724 0.123763
vt 0.622562 0.092611
vt 0.531627 0.164169
vt 0.527096 0.124838
vt 0.470767 0.093731
vt 0.408416 0.176018
vt 0.375000 0.135069
vt 0.395840 0.097222
vt 0.532662 0.162596
vt 0.525068 0.123954
vt 0.469247 0.092882
vt 0.563354 0.567178
vt 0.530134 0.605465
vt 0.496979 0.643754
vt 0.497731 0.675085
vt 0.498215 0.706418
vt 0.498640 0.750000
vt 0.618535 0.503718
vn 0.061226 0.406754 0.911483
vn -0.061229 0.406747 0.911487
vn -0.032400 0.534304 0.844671
vn 0.032398 0.534308 0.844669
vn -0.025677 0.005986 0.999652
vn 0.025677 0.005986 0.999652
vn 0.025684 0.005987 0.999652
vn -0.025684 0.005987 0.999652
vn 0.000000 0.999981 -0.006120
vn 0.000000 0.999981 -0.006120
vn 0.000000 0.999981 -0.006120
vn 0.000000 0.999981 -0.006120
vn 0.000000 -1.000000 -0.000381
vn 0.000000 -1.000000 -0.000381
vn 0.000000 -1.000000 -0.000381
vn 0.000000 -1.000000 -0.000381
vn 0.014931 0.169690 -0.985384
vn -0.014928 0.169691 -0.985384
vn -0.016773 0.161580 -0.986717
vn 0.016776 0.161579 -0.986717
vn 0.021693 -0.013308 -0.999676
vn -0.021697 -0.013307 -0.999676
vn -0.021687 -0.013306 -0.999676
vn 0.021683 -0.013307 -0.999676
vn -0.030834 0.989226 0.143110
vn -0.058398 0.994905 0.082180
vn -0.049699 0.993401 0.103368
vn -0.016725 0.987086 0.159313
vn -0.072281 0.997381 0.002597
vn -0.072281 0.997381 0.002608
vn -0.057110 0.995394 -0.077007
vn -0.047938 0.994014 -0.098179
vn -0.027722 0.989924 -0.138858
vn -0.013303 0.987645 -0.156139
vn 0.000000 -1.000000 -0.000000
vn 0.000000 -1.000000 -0.000000
vn 0.000000 -1.000000 -0.000000
vn 0.000000 -1.000000 -0.000000
vn 0.000000 -1.000000 0.000000
vn 0.000000 -1.000000 0.000000
vn 0.000000 -1.000000 0.000000
vn 0.000000 -1.000000 0.000000
vn 0.000000 -1.000000 0.000000
vn 0.000000 -1.000000 0.000000
vn 0.000000 1.000000 -0.000000
vn 0.000001 1.000000 -0.000114
vn 0.000001 1.000000 -0.000113
vn 0.000000 1.000000 -0.000000
vn 0.000004 1.000000 -0.000448
vn 0.000004 1.000000 -0.000446
vn 0.000002 0.999999 -0.001324
vn 0.000002 0.999999 -0.001317
vn -0.000001 0.999998 -0.001901
vn -0.000001 0.999998 -0.001901
vn 0.004504 0.984136 -0.177359
vn 0.004504 0.984136 -0.177359
vn 0.000000 -1.000000 0.000000
vn 0.000000 -1.000000 0.000000
vn 0.000000 -1.000000 0.000000
vn 0.000001 0.999998 -0.001960
vn 0.000001 0.999998 -0.001960
vn 0.008542 -0.982786 0.184550
vn 0.008542 -0.982786 0.184550
vn -0.036020 -0.983185 0.179025
vn -0.363724 -0.922866 0.126587
vn 0.003587 0.983201 0.182493
vn 0.003587 0.983201 0.182493
vn 0.000000 -1.000000 0.000000
vn 0.000000 -1.000000 0.000000
vn 0.000000 1.000000 -0.000000
vn 0.000000 1.000000 -0.000000
vn -0.483468 -0.867124 -0.119810
vn -0.316974 -0.935623 -0.155363
vn -0.040410 -0.979025 -0.199694
vn -0.040410 -0.979025 -0.199694
vn -0.882957 -0.467669 0.040899
vn -0.399446 -0.909465 0.115401
vn -0.880428 -0.474178 -0.001540
vn -0.637638 -0.770329 -0.003278
vn -0.887057 -0.459922 -0.040029
vn -0.502565 -0.857424 -0.110694
vn -0.079302 -0.379095 0.921954
vn -0.051867 -0.130138 0.990138
vn 0.003027 -0.091419 0.995808
vn -0.000844 -0.316519 0.948586
vn 0.002480 -0.219846 0.975532
vn 0.002539 -0.217129 0.976140
vn 0.006429 -0.034740 0.999376
vn 0.006418 -0.035392 0.999353
vn 0.005372 -0.093629 0.995593
vn 0.005372 -0.093691 0.995587
vn 0.058870 0.240843 -0.968777
vn 0.099566 0.131603 -0.986290
vn -0.000058 0.115809 -0.993272
vn -0.000038 0.219404 -0.975634
vn 0.095769 0.070812 -0.992882
vn -0.000019 0.068970 -0.997619
vn 0.063649 0.052642 -0.996583
vn -0.000013 0.048715 -0.998813
vn 0.029919 0.023228 -0.999282
vn -0.000005 0.018608 -0.999827
vn -0.120286 0.067198 0.990462
vn -0.097591 0.102238 0.989961
vn -0.096742 0.104934 0.989763
vn -0.108035 0.085707 0.990446
vn -0.089793 0.102207 0.990702
vn -0.080980 0.095789 0.992102
vn -0.063397 0.079342 0.994830
vn -0.052627 0.067669 0.996319
vn -0.035645 0.037059 0.998677
vn -0.030974 0.022476 0.999267
vn 0.035645 0.037059 0.998677
vn 0.063395 0.079342 0.994830
vn 0.052626 0.067668 0.996319
vn 0.030974 0.022476 0.999267
vn 0.089790 0.102208 0.990702
vn 0.080978 0.095789 0.992102
vn 0.097584 0.102243 0.989962
vn 0.096736 0.104937 0.989763
vn 0.120281 0.067205 0.990462
vn 0.108028 0.085714 0.990446
vn -0.002029 -0.389222 0.921142
vn -0.109177 -0.464668 0.878729
vn -0.008863 -0.000224 -0.999961
vn -0.000000 -0.000469 -1.000000
vn -0.732987 -0.678430 0.049622
vn -0.742481 -0.668869 0.036547
vn -0.744303 -0.666976 0.033993
vn -0.732987 -0.678430 0.049622
vn 0.898050 -0.439892 -0.000084
vn 0.888026 -0.459789 0.001964
vn 0.888357 -0.459150 0.001898
vn 0.898050 -0.439892 -0.000084
vn 0.009082 -0.148816 -0.988823
vn -0.055330 -0.169334 -0.984004
vn -0.026117 -0.029574 -0.999221
vn -0.028796 -0.039444 -0.998807
vn 0.686063 0.725287 -0.057245
vn 0.700595 0.710521 -0.065782
vn 0.710143 0.701618 -0.058562
vn 0.693034 0.719227 -0.049163
vn -0.686799 0.724317 0.060598
vn -0.699257 0.711498 0.069357
vn -0.709987 0.701177 0.065340
vn -0.694813 0.716861 0.057840
vn -0.736026 -0.674250 0.060440
vn -0.739293 -0.670694 0.060123
vn -0.742878 -0.666800 0.059254
vn -0.736472 -0.673800 0.060016
vn 0.889804 -0.449381 0.079408
vn 0.883366 -0.462011 0.078805
vn 0.878843 -0.473215 0.060841
vn 0.886888 -0.457374 0.065106
vn 0.888140 0.455507 0.060992
vn 0.880709 0.470113 0.057839
vn 0.885199 0.459395 0.073342
vn 0.890851 0.448318 0.073459
vn -0.888761 0.454663 -0.058193
vn -0.881360 0.469333 -0.054136
vn -0.885940 0.459062 -0.066126
vn -0.891972 0.446872 -0.068501
vn -0.734360 -0.673803 0.081884
vn -0.752646 -0.649875 0.105766
vn 0.890342 -0.452220 -0.052810
vn 0.881544 -0.470320 -0.040979
vn 0.895967 -0.444100 -0.004283
vn 0.898972 -0.437819 -0.012819
vn -0.885113 0.463931 -0.036643
vn -0.879453 0.474788 -0.033752
vn -0.882688 0.469957 0.001189
vn -0.877745 0.479126 0.001131
vn -0.884940 0.464034 0.039419
vn -0.879017 0.475401 0.036360
vn -0.887935 0.455929 0.060823
vn -0.880348 0.470844 0.057392
vn 0.885033 0.463877 0.039174
vn 0.879399 0.474677 0.036610
vn 0.882640 0.470047 0.001279
vn 0.877759 0.479100 0.001606
vn 0.884984 0.464166 -0.036791
vn 0.879105 0.475456 -0.033400
vn 0.888575 0.455048 -0.058012
vn 0.881022 0.470015 -0.053726
vn -0.736572 -0.675022 0.042523
vn -0.745337 -0.665416 0.041152
vn -0.738195 -0.674490 0.011464
vn -0.749406 -0.662039 0.009723
vn -0.749840 -0.661587 -0.006435
vn -0.745078 -0.666970 -0.003035
vn -0.754831 -0.655893 -0.005952
vn -0.757264 -0.653048 -0.008952
vn 0.736351 -0.673906 0.060314
vn 0.736295 -0.675267 0.043408
vn 0.745066 -0.665698 0.041494
vn 0.742639 -0.667042 0.059522
vn 0.737711 -0.675006 0.012221
vn 0.749149 -0.662325 0.010127
vn 0.744923 -0.667144 -0.002899
vn 0.756216 -0.654283 -0.007228
vn 0.750019 -0.661382 -0.006794
vn 0.760240 -0.649537 -0.011682
vn 0.005454 -0.048755 0.998796
vn 0.005454 -0.048755 0.998796
vn -0.000007 0.253451 -0.967348
vn 0.053653 0.252890 -0.966006
vn -0.888324 -0.459215 0.001402
vn -0.887991 -0.459858 0.001452
vn -0.898051 -0.439892 -0.000084
vn -0.898051 -0.439892 -0.000084
vn 0.744330 -0.666849 0.035849
vn 0.742502 -0.668760 0.038098
vn 0.732988 -0.678430 0.049623
vn 0.732988 -0.678430 0.049623
vn 0.028920 -0.039677 -0.998794
vn 0.026192 -0.029716 -0.999215
vn 0.054868 -0.169298 -0.984036
vn -0.010458 -0.148656 -0.988834
vn 0.885679 0.459744 -0.064876
vn 0.891855 0.447233 -0.067660
vn -0.884928 0.460181 0.071669
vn -0.890733 0.448745 0.072270
vn -0.878543 -0.473792 0.060686
vn -0.883079 -0.462778 0.077515
vn -0.889583 -0.449932 0.078761
vn -0.886597 -0.457941 0.065090
vn 0.738978 -0.671039 0.060149
vn 0.735850 -0.674458 0.060255
vn 0.692802 0.719150 0.053372
vn 0.707843 0.703248 0.066346
vn 0.697633 0.713162 0.068617
vn 0.684413 0.727053 0.054525
vn -0.691048 0.721269 -0.047156
vn -0.708126 0.703597 -0.059232
vn -0.698667 0.712468 -0.065218
vn -0.683582 0.727863 -0.054131
vn -0.895973 -0.443964 0.011335
vn -0.883030 -0.467431 -0.042036
vn -0.891616 -0.449602 -0.053662
vn -0.899185 -0.437569 -0.000848
vn 0.746628 -0.660918 0.075716
vn 0.760200 -0.644211 0.084187
vn 0.738033 -0.671077 0.070456
vn 0.738033 -0.671077 0.070456
vn -0.718030 0.693521 -0.058825
vn -0.711292 0.699965 -0.064128
vn -0.726252 0.687423 0.002621
vn -0.718548 0.695475 0.001993
vn -0.718781 0.692467 0.061986
vn -0.710239 0.700754 0.067116
vn 0.716294 0.694985 0.062605
vn 0.708884 0.702013 0.068277
vn 0.725736 0.687967 0.003012
vn 0.718168 0.695848 0.005421
vn 0.720051 0.691533 -0.057522
vn 0.712555 0.698868 -0.062033
vn -0.875752 -0.481466 0.035338
vn -0.873593 -0.486654 -0.001651
vn -0.879078 -0.475475 -0.033851
vn 0.876008 -0.480963 0.035830
vn 0.883156 -0.467335 0.040426
vn 0.873085 -0.487563 -0.002103
vn 0.879854 -0.475239 -0.002336
vn 0.877801 -0.477835 -0.033760
vn 0.885933 -0.462031 -0.040620
vn -0.782323 -0.612386 0.113817
vn -0.809381 -0.578482 0.101302
vn -0.824745 -0.565424 -0.009601
vn -0.868145 -0.490535 0.075498
vn -0.858673 -0.511908 -0.025118
vn 0.870228 -0.490719 0.043570
vn 0.857951 -0.513118 -0.025118
vn 0.813761 -0.576251 0.075677
vn 0.823936 -0.566513 -0.013862
vn 0.786257 -0.610806 0.093357
vn 0.791931 -0.610590 -0.005050
vn -0.742525 0.667503 0.055644
vn -0.749899 0.659127 0.056600
vn -0.796096 0.600927 0.071541
vn -0.798572 0.599339 0.055459
vn -0.847768 0.525423 0.072247
vn -0.844901 0.532199 0.053913
vn 0.848188 0.524258 0.075697
vn 0.845660 0.530809 0.055689
vn 0.796463 0.599940 0.075627
vn 0.799823 0.597306 0.059236
vn 0.742614 0.667207 0.057960
vn 0.748500 0.660397 0.060197
vn 0.737236 0.675028 -0.028643
vn 0.748548 0.661449 -0.046496
vn 0.794599 0.605335 -0.046715
vn 0.798761 0.599858 -0.046374
vn 0.848021 0.526982 -0.056117
vn 0.845801 0.531393 -0.047354
vn -0.863367 -0.504557 0.004381
vn -0.865224 -0.501368 0.004180
vn -0.822207 -0.569117 0.009006
vn -0.825425 -0.564446 0.008636
vn -0.776307 -0.630168 0.015344
vn -0.780654 -0.624791 0.014679
vn -0.848463 0.525999 -0.058607
vn -0.846428 0.530271 -0.048706
vn -0.795003 0.604570 -0.049656
vn -0.799754 0.598311 -0.049165
vn -0.737348 0.674814 -0.030735
vn -0.747566 0.662368 -0.049129
vn 0.776616 -0.629658 0.019957
vn 0.780992 -0.624237 0.019467
vn 0.822570 -0.568507 0.013331
vn 0.825696 -0.563971 0.012733
vn 0.863487 -0.504334 0.006097
vn 0.865292 -0.501235 0.005816
vn 0.038692 -0.062946 -0.997267
vn 0.046301 -0.078238 -0.995859
vn 0.057216 -0.099752 -0.993366
vn 0.062355 -0.109573 -0.992021
vn 0.062876 -0.121665 -0.990578
vn 0.058696 -0.128987 -0.989908
vn -0.064562 -0.120433 -0.990620
vn -0.060544 -0.128377 -0.989876
vn -0.057147 -0.099217 -0.993424
vn -0.063263 -0.108362 -0.992097
vn -0.038273 -0.062750 -0.997295
vn -0.045631 -0.078160 -0.995896
vn -0.857234 -0.509246 0.076285
vn -0.854694 -0.515976 0.057154
vn -0.813644 -0.576853 0.072278
vn -0.816460 -0.574582 0.056993
vn -0.765780 -0.640015 0.062942
vn -0.774450 -0.629969 0.058019
vn 0.765502 -0.640248 0.063948
vn 0.774391 -0.630041 0.058026
vn 0.813892 -0.576253 0.074243
vn 0.816387 -0.574697 0.056887
vn 0.857586 -0.508332 0.078390
vn 0.854581 -0.516158 0.057202
vn -0.855152 -0.517432 0.031295
vn -0.820090 -0.571330 0.032176
vn -0.780226 -0.624396 0.037100
vn 0.780259 -0.624338 0.037393
vn 0.819955 -0.571510 0.032404
vn 0.854971 -0.517717 0.031518
vn 0.849148 0.527054 0.034077
vn 0.806370 0.590057 0.039995
vn 0.756180 0.652540 0.048815
vn -0.849240 0.527113 -0.030725
vn -0.806311 0.590386 -0.036149
vn -0.756742 0.652145 -0.045260
vn -0.788885 -0.614380 -0.014052
vn -0.790707 -0.612070 -0.012417
vn -0.825544 -0.564094 -0.016552
vn -0.857026 -0.514723 -0.023803
vn -0.850748 0.525570 0.001855
vn -0.810584 0.585613 0.003204
vn -0.764814 0.644240 0.003704
vn -0.848073 0.528791 0.033956
vn -0.804727 0.592305 0.039867
vn -0.757738 0.650729 0.048840
vn 0.850944 0.525256 0.000953
vn 0.810684 0.585484 -0.000152
vn 0.764392 0.644751 0.000138
vn 0.848446 0.528396 -0.030621
vn 0.804918 0.592283 -0.036162
vn 0.757744 0.650979 -0.045287
vn -0.854588 -0.519305 -0.001102
vn -0.823405 -0.567454 -0.000176
vn -0.787605 -0.616170 0.003633
vn 0.787651 -0.616108 0.004065
vn 0.823864 -0.566787 -0.000228
vn 0.854650 -0.519201 -0.001912
vn 0.791355 -0.611148 -0.015964
vn 0.825594 -0.563940 -0.019114
vn 0.856912 -0.514877 -0.024563
vn -0.008895 -0.000223 -0.999960
vn -0.026563 0.023161 -0.999379
vn -0.059797 0.053750 -0.996762
vn -0.091723 0.072457 -0.993145
vn -0.096494 0.133278 -0.986370
vn -0.057622 0.241271 -0.968746
vn -0.052551 0.253292 -0.965961
s 1
g pCube12
usemtl initialShadingGroup
f 1/123/1 2/34/2 10/38/3 9/103/4
f 4/113/5 3/36/6 12/40/7 11/101/8
s off
f 9/103/9 10/38/10 14/42/11 13/107/12
f 11/101/13 12/40/14 16/44/15 15/105/16
s 3
f 13/107/17 14/42/18 18/51/19 17/111/20
f 15/105/21 16/44/22 20/53/23 19/109/24
s 5
f 29/1/25 28/17/26 31/18/27 30/10/28
f 28/17/26 27/16/29 32/19/30 31/18/27
f 27/16/29 26/15/31 33/20/32 32/19/30
f 26/15/31 25/6/33 34/2/34 33/20/32
s 6
f 39/3/35 38/23/36 41/24/37 40/12/38
f 38/23/36 37/22/39 42/25/40 41/24/37
f 37/22/39 36/21/41 43/26/42 42/25/40
f 36/21/41 35/8/43 44/4/44 43/26/42
s 7
f 49/94/45 48/92/46 51/84/47 50/60/48
f 48/92/46 47/90/49 52/86/50 51/84/47
f 47/90/49 46/88/51 53/82/52 52/86/50
f 46/88/51 45/119/53 54/80/54 53/82/52
s 5
f 3/5/55 4/113/56 34/2/34 25/6/33
s 6
f 7/99/57 230/269/58 8/7/59 44/4/44 35/8/43
s 7
f 17/111/60 18/51/61 54/80/54 45/119/53
s 8
f 19/9/62 20/53/63 64/153/64 59/117/65
s 5
f 29/1/25 30/10/28 6/32/66 5/11/67
s 6
f 39/3/35 40/12/38 2/13/68 1/14/69
s 7
f 49/94/45 50/60/48 22/29/70 21/127/71
s 8
f 55/149/72 60/62/73 24/97/74 23/125/75
f 58/145/76 59/117/65 64/153/64 63/155/77
f 57/147/78 58/145/76 63/155/77 62/157/79
f 55/149/72 56/151/80 61/159/81 60/62/73
f 56/151/80 57/147/78 62/157/79 61/159/81
f 69/61/82 68/164/83 71/165/84 70/30/85
f 68/164/83 67/163/86 72/166/87 71/165/84
f 67/163/86 66/162/88 73/167/89 72/166/87
f 66/162/88 65/96/90 74/63/91 73/167/89
s 11
f 79/27/92 78/173/93 228/267/94 229/268/95
f 78/173/93 77/171/96 227/266/97 228/267/94
f 77/171/96 76/169/98 226/265/99 227/266/97
f 76/169/98 75/33/100 225/264/101 226/265/99
s 1
f 89/47/102 88/182/103 91/183/104 90/35/105
f 88/182/103 87/181/106 92/184/107 91/183/104
f 87/181/106 86/180/108 93/185/109 92/184/107
f 86/180/108 85/100/110 94/104/111 93/185/109
f 99/59/112 98/188/113 101/189/114 100/37/115
f 98/188/113 97/187/116 102/190/117 101/189/114
f 97/187/116 96/186/118 103/191/119 102/190/117
f 96/186/118 95/102/120 104/106/121 103/191/119
s 8
f 21/127/122 22/29/123 69/61/82 70/30/85
s 11
f 5/31/124 231/270/125 225/264/101 75/33/100
s 1
f 2/34/2 89/47/102 90/35/105 10/38/3
f 3/36/6 99/59/112 100/37/115 12/40/7
s 14
f 10/38/126 90/35/127 105/39/128 14/42/129
s 15
f 12/40/130 100/37/131 110/41/132 16/44/133
s 3
f 14/42/18 105/39/134 115/43/135 18/51/19
f 16/44/22 110/41/136 120/45/137 20/53/23
s 16
f 2/34/138 40/46/139 129/142/140 89/47/141
s 17
f 7/48/142 35/49/143 134/134/144 79/50/145
s 8
f 18/51/146 115/43/147 135/52/148 54/80/149
s 19
f 20/53/150 120/45/151 140/54/152 64/153/153
s 16
f 30/55/154 149/73/155 84/56/156 6/57/157
s 17
f 25/58/158 154/65/159 99/59/160 3/36/161
s 8
f 50/60/162 159/85/163 69/61/82 22/29/123
s 19
f 60/62/164 164/158/165 74/63/166 24/97/167
s 17
f 25/58/158 26/64/168 169/67/169 154/65/159
f 26/64/168 27/66/170 174/69/171 169/67/169
f 27/66/170 28/68/172 179/71/173 174/69/171
f 28/68/172 29/70/174 130/114/175 179/71/173
s 16
f 30/55/154 31/72/176 184/75/177 149/73/155
f 31/72/176 32/74/178 189/77/179 184/75/177
f 32/74/178 33/76/180 194/79/181 189/77/179
f 33/76/180 34/78/182 125/112/183 194/79/181
s 8
f 53/82/184 54/80/149 135/52/148 195/81/185
f 52/86/186 53/82/184 195/81/185 200/83/187
f 50/60/188 51/84/189 209/87/190 159/85/191
f 51/84/189 52/86/186 200/83/187 209/87/190
s 19
f 45/119/192 46/88/193 214/91/194 144/89/195
f 46/88/193 47/90/196 219/93/197 214/91/194
f 47/90/196 48/92/198 224/95/199 219/93/197
f 48/92/198 49/94/200 160/126/201 224/95/199
s 8
f 74/63/91 65/96/90 23/125/202 24/97/203
s 11
f 79/27/92 229/268/95 230/269/204 7/99/205
s 1
f 94/104/111 85/100/110 4/113/5 11/101/8
f 104/106/121 95/102/120 1/123/1 9/103/4
s 14
f 109/108/206 94/104/207 11/101/208 15/105/209
s 15
f 114/110/210 104/106/211 9/103/212 13/107/213
s 3
f 119/116/214 109/108/215 15/105/21 19/109/24
f 124/118/216 114/110/217 13/107/17 17/111/20
s 16
f 85/100/218 125/112/183 34/78/182 4/113/219
s 17
f 75/160/220 130/114/175 29/70/174 5/115/221
s 8
f 139/144/222 119/116/223 19/109/224 59/117/225
s 19
f 144/89/195 124/118/226 17/111/227 45/119/192
s 16
f 80/161/228 145/120/229 44/137/230 8/121/231
s 17
f 95/102/232 150/122/233 39/129/234 1/123/235
s 8
f 65/96/236 155/124/237 55/149/238 23/125/239
s 19
f 70/30/240 160/126/241 49/94/242 21/127/243
s 17
f 150/122/233 165/128/244 38/131/245 39/129/234
f 165/128/244 170/130/246 37/133/247 38/131/245
f 170/130/246 175/132/248 36/135/249 37/133/247
f 175/132/248 134/134/144 35/49/143 36/135/249
s 16
f 145/120/229 180/136/250 43/139/251 44/137/230
f 180/136/250 185/138/252 42/141/253 43/139/251
f 185/138/252 190/140/254 41/143/255 42/141/253
f 190/140/254 129/142/140 40/46/139 41/143/255
s 8
f 199/146/256 139/144/222 59/117/225 58/145/76
f 204/150/257 199/146/256 58/145/76 57/147/78
f 155/124/237 205/148/258 56/151/80 55/149/238
f 205/148/258 204/150/257 57/147/78 56/151/80
s 19
f 140/54/152 210/152/259 63/155/260 64/153/153
f 210/152/259 215/154/261 62/157/262 63/155/260
f 215/154/261 220/156/263 61/159/264 62/157/262
f 220/156/263 164/158/165 60/62/164 61/159/264
s 8
f 68/164/83 69/61/82 159/85/163 158/224/265
f 67/163/266 68/164/83 158/224/265 157/223/267
f 65/96/236 66/162/268 156/222/269 155/124/237
f 66/162/268 67/163/266 157/223/267 156/222/269
s 19
f 73/167/270 74/63/166 164/158/165 163/227/271
f 72/166/272 73/167/270 163/227/271 162/226/273
f 70/30/240 71/165/274 161/225/275 160/126/241
f 71/165/274 72/166/272 162/226/273 161/225/275
s 17
f 78/172/276 79/50/145 134/134/144 133/209/277
f 77/170/278 78/172/276 133/209/277 132/208/279
f 75/160/220 76/168/280 131/207/281 130/114/175
f 76/168/280 77/170/278 132/208/279 131/207/281
s 16
f 83/178/282 84/56/156 149/73/155 148/218/283
f 82/176/284 83/178/282 148/218/283 147/217/285
f 80/161/228 81/174/286 146/216/287 145/120/229
f 81/174/286 82/176/284 147/217/285 146/216/287
f 88/182/288 89/47/141 129/142/140 128/206/289
f 87/181/290 88/182/288 128/206/289 127/205/291
f 85/100/218 86/180/292 126/204/293 125/112/183
f 86/180/292 87/181/290 127/205/291 126/204/293
s 14
f 93/185/294 94/104/207 109/108/206 108/194/295
f 92/184/296 93/185/294 108/194/295 107/193/297
f 90/35/127 91/183/298 106/192/299 105/39/128
f 91/183/298 92/184/296 107/193/297 106/192/299
s 17
f 98/188/300 99/59/160 154/65/159 153/221/301
f 97/187/302 98/188/300 153/221/301 152/220/303
f 95/102/232 96/186/304 151/219/305 150/122/233
f 96/186/304 97/187/302 152/220/303 151/219/305
s 15
f 103/191/306 104/106/211 114/110/210 113/197/307
f 102/190/308 103/191/306 113/197/307 112/196/309
f 100/37/131 101/189/310 111/195/311 110/41/132
f 101/189/310 102/190/308 112/196/309 111/195/311
s 3
f 108/194/312 109/108/215 119/116/214 118/200/313
f 107/193/314 108/194/312 118/200/313 117/199/315
f 105/39/134 106/192/316 116/198/317 115/43/135
f 106/192/316 107/193/314 117/199/315 116/198/317
f 113/197/318 114/110/217 124/118/216 123/203/319
f 112/196/320 113/197/318 123/203/319 122/202/321
f 110/41/136 111/195/322 121/201/323 120/45/137
f 111/195/322 112/196/320 122/202/321 121/201/323
s 8
f 118/200/324 119/116/223 139/144/222 138/212/325
f 117/199/326 118/200/324 138/212/325 137/211/327
f 115/43/147 116/198/328 136/210/329 135/52/148
f 116/198/328 117/199/326 137/211/327 136/210/329
s 19
f 123/203/330 124/118/226 144/89/195 143/215/331
f 122/202/332 123/203/330 143/215/331 142/214/333
f 120/45/151 121/201/334 141/213/335 140/54/152
f 121/201/334 122/202/332 142/214/333 141/213/335
s 8
f 138/212/325 139/144/222 199/146/256 198/248/336
f 137/211/327 138/212/325 198/248/336 197/247/337
f 135/52/148 136/210/329 196/246/338 195/81/185
f 136/210/329 137/211/327 197/247/337 196/246/338
s 19
f 143/215/331 144/89/195 214/91/194 213/257/339
f 142/214/333 143/215/331 213/257/339 212/256/340
f 140/54/152 141/213/335 211/255/341 210/152/259
f 141/213/335 142/214/333 212/256/340 211/255/341
s 16
f 148/218/283 149/73/155 184/75/177 183/239/342
f 147/217/285 148/218/283 183/239/342 182/238/343
f 145/120/229 146/216/287 181/237/344 180/136/250
f 146/216/287 147/217/285 182/238/343 181/237/344
s 17
f 153/221/301 154/65/159 169/67/169 168/230/345
f 152/220/303 153/221/301 168/230/345 167/229/346
f 150/122/233 151/219/305 166/228/347 165/128/244
f 151/219/305 152/220/303 167/229/346 166/228/347
s 8
f 158/224/348 159/85/191 209/87/190 208/254/349
f 157/223/267 158/224/348 208/254/349 207/253/350
f 155/124/237 156/222/269 206/252/351 205/148/258
f 156/222/269 157/223/267 207/253/350 206/252/351
s 17
f 168/230/345 169/67/169 174/69/171 173/233/352
f 167/229/346 168/230/345 173/233/352 172/232/353
f 165/128/244 166/228/347 171/231/354 170/130/246
f 166/228/347 167/229/346 172/232/353 171/231/354
f 173/233/352 174/69/171 179/71/173 178/236/355
f 172/232/353 173/233/352 178/236/355 177/235/356
f 170/130/246 171/231/354 176/234/357 175/132/248
f 171/231/354 172/232/353 177/235/356 176/234/357
f 130/114/175 131/207/281 178/236/355 179/71/173
f 131/207/281 132/208/279 177/235/356 178/236/355
f 132/208/279 133/209/277 176/234/357 177/235/356
f 133/209/277 134/134/144 175/132/248 176/234/357
s 16
f 183/239/342 184/75/177 189/77/179 188/242/358
f 182/238/343 183/239/342 188/242/358 187/241/359
f 180/136/250 181/237/344 186/240/360 185/138/252
f 181/237/344 182/238/343 187/241/359 186/240/360
f 188/242/358 189/77/179 194/79/181 193/245/361
f 187/241/359 188/242/358 193/245/361 192/244/362
f 185/138/252 186/240/360 191/243/363 190/140/254
f 186/240/360 187/241/359 192/244/362 191/243/363
f 125/112/183 126/204/293 193/245/361 194/79/181
f 126/204/293 127/205/291 192/244/362 193/245/361
f 127/205/291 128/206/289 191/243/363 192/244/362
f 128/206/289 129/142/140 190/140/254 191/243/363
s 8
f 198/248/336 199/146/256 204/150/257 203/251/364
f 197/247/337 198/248/336 203/251/364 202/250/365
f 195/81/185 196/246/338 201/249/366 200/83/187
f 196/246/338 197/247/337 202/250/365 201/249/366
f 200/83/187 201/249/366 208/254/349 209/87/190
f 201/249/366 202/250/365 207/253/350 208/254/349
f 202/250/365 203/251/364 206/252/351 207/253/350
f 203/251/364 204/150/257 205/148/258 206/252/351
s 19
f 213/257/339 214/91/194 219/93/197 218/260/367
f 212/256/340 213/257/339 218/260/367 217/259/368
f 210/152/259 211/255/341 216/258/369 215/154/261
f 211/255/341 212/256/340 217/259/368 216/258/369
f 218/260/367 219/93/197 224/95/199 223/263/370
f 217/259/368 218/260/367 223/263/370 222/262/371
f 215/154/261 216/258/369 221/261/372 220/156/263
f 216/258/369 217/259/368 222/262/371 221/261/372
f 160/126/201 161/225/275 223/263/370 224/95/199
f 161/225/275 162/226/273 222/262/371 223/263/370
f 162/226/273 163/227/271 221/261/372 222/262/371
f 163/227/271 164/158/165 220/156/263 221/261/372
s 11
f 5/31/124 6/32/373 84/28/374 225/264/101 231/270/125
f 226/265/99 225/264/101 84/28/374 83/179/375
f 227/266/97 226/265/99 83/179/375 82/177/376
f 228/267/94 227/266/97 82/177/376 81/175/377
f 229/268/95 228/267/94 81/175/377 80/98/378
f 230/269/204 229/268/95 80/98/378 8/7/379
