# This file uses meters as units for non-parametric coordinates.

mtllib MauerStein3.mtl
g default
v -31.036102 0.845478 40.624718
v -24.091921 -2.030846 40.733574
v -23.980282 0.920238 47.548042
v -23.906744 7.968155 50.187202
v -30.982193 7.886501 47.310738
v -33.912476 7.789711 40.366585
v 31.036102 0.845478 40.624718
v 33.912476 7.789711 40.366585
v 31.035999 7.778564 47.316124
v 24.091921 7.783104 50.193993
v 24.080387 0.865837 47.549263
v 24.091921 -2.030846 40.733574
v -31.036102 7.786407 -46.207359
v -24.091921 7.783104 -49.085739
v -23.983353 0.865421 -46.386467
v -23.906744 -2.030846 -39.440140
v -30.982193 0.846684 -39.416252
v -33.912476 7.789711 -39.258331
v 31.036102 7.786407 -46.207359
v 33.912476 7.789711 -39.258331
v 31.035999 0.845257 -39.524315
v 24.091921 -2.030846 -39.625313
v 24.080387 0.865837 -46.441010
v 24.091921 7.783104 -49.085739
v -24.291126 45.166935 46.018349
v -24.267178 47.969154 39.074043
v -31.087738 45.091709 39.089027
v -33.912476 38.148598 39.252541
v -31.087738 38.239811 46.196983
v -24.267178 38.330345 49.073036
v 24.278753 45.167065 46.018257
v 24.267178 38.330345 49.073036
v 31.087738 38.239811 46.196983
v 33.912476 38.148598 39.252541
v 31.087738 45.091709 39.089027
v 24.267178 47.969154 39.074043
v -24.278753 45.167065 -44.909996
v -24.267178 38.330345 -47.964783
v -31.087738 38.239811 -45.088722
v -33.912476 38.148598 -38.144287
v -31.087738 45.091709 -37.980774
v -24.267178 47.969154 -37.965782
v 24.278753 45.167065 -44.909996
v 24.267178 47.969154 -37.965782
v 31.087738 45.091709 -37.980774
v 33.912476 38.148598 -38.144287
v 31.087738 38.239811 -45.088722
v 24.267178 38.330345 -47.964783
v -29.713585 2.176453 46.231148
v 29.755215 2.131447 46.233284
v -29.714771 2.134937 -45.082603
v 29.755215 2.134373 -45.127861
v -29.843521 43.867531 44.765923
v 29.838764 43.867760 44.765800
v -29.838757 43.867756 -43.657555
v 29.838757 43.867756 -43.657555
vt 0.539844 0.848586
vt 0.538786 0.867205
vt 0.342114 0.868162
vt 0.340993 0.849331
vt 0.537786 0.885306
vt 0.343054 0.886119
vt 0.485590 0.146328
vt 0.500356 0.134770
vt 0.573347 0.229698
vt 0.558725 0.240955
vt 0.514859 0.123280
vt 0.587995 0.218480
vt 0.556177 0.883624
vt 0.558999 0.962412
vt 0.534465 0.960731
vt 0.576321 0.880772
vt 0.578261 0.964815
vt 0.155118 0.735659
vt 0.153942 0.717743
vt 0.350913 0.716751
vt 0.349880 0.734878
vt 0.152650 0.699216
vt 0.351939 0.698114
vt 0.118616 0.732629
vt 0.137673 0.734515
vt 0.139968 0.810408
vt 0.121221 0.812901
vt 0.157472 0.809302
vt 0.306595 0.882998
vt 0.325635 0.884976
vt 0.327868 0.960827
vt 0.309090 0.963322
vt 0.345402 0.959715
vt 0.123975 0.423607
vt 0.138746 0.412055
vt 0.211622 0.507066
vt 0.196984 0.518304
vt 0.153259 0.400577
vt 0.226291 0.495863
vt 0.368215 0.733028
vt 0.370989 0.812021
vt 0.346554 0.810324
vt 0.387982 0.730095
vt 0.390216 0.814455
vt 0.395358 0.214397
vt 0.410123 0.202993
vt 0.483754 0.299027
vt 0.468931 0.310353
vt 0.424965 0.191687
vt 0.498546 0.287653
vt 0.535099 0.979260
vt 0.345156 0.977691
vt 0.535910 0.998047
vt 0.344094 0.996040
vt 0.156146 0.845638
vt 0.157216 0.827282
vt 0.347182 0.828851
vt 0.347980 0.847642
vt 0.213442 0.353867
vt 0.228234 0.342492
vt 0.301847 0.438507
vt 0.287022 0.449846
vt 0.243061 0.331164
vt 0.316634 0.427129
vt 0.673530 0.001953
vt 0.746759 0.096509
vt 0.552673 0.869649
vt 0.563618 0.857784
vt 0.129465 0.709534
vt 0.140489 0.720725
vt 0.328507 0.871207
vt 0.317516 0.859809
vt 0.375596 0.707373
vt 0.364803 0.719192
vt 0.562998 0.990087
vt 0.552257 0.977036
vt 0.132829 0.835545
vt 0.143445 0.824296
vt 0.320772 0.985990
vt 0.331373 0.974710
vt 0.375013 0.839691
vt 0.364280 0.826639
vn -0.050631 -0.998205 0.031976
vn -0.699766 -0.713996 0.023158
vn -0.701048 -0.712732 -0.023348
vn -0.050525 -0.998215 -0.031855
vn -0.996425 -0.078097 0.032225
vn -0.996461 -0.077627 -0.032243
vn -0.048309 -0.037567 0.998126
vn -0.037150 -0.691416 0.721501
vn 0.035629 -0.690803 0.722165
vn 0.048439 -0.037832 0.998110
vn 0.050510 -0.998206 0.032160
vn -0.703378 -0.031078 0.710136
vn -0.708480 0.075261 0.701707
vn -0.996950 0.071754 0.030698
vn -0.049274 0.108588 0.992865
vn 0.996489 -0.077314 0.032122
vn 0.702667 -0.711149 0.022924
vn 0.702668 -0.711147 -0.022970
vn 0.996487 -0.077353 -0.032102
vn 0.050567 -0.998210 -0.031934
vn 0.705905 -0.030232 0.707661
vn 0.710718 0.076379 0.699318
vn 0.049235 0.108579 0.992868
vn 0.996953 0.071801 0.030495
vn -0.048594 -0.037975 -0.998096
vn -0.705873 -0.031950 -0.707617
vn -0.710717 0.076384 -0.699319
vn -0.049060 0.108321 -0.992905
vn -0.996953 0.071802 -0.030491
vn -0.037168 -0.695659 -0.717410
vn 0.035625 -0.696346 -0.716821
vn 0.048312 -0.038182 -0.998102
vn 0.705902 -0.030130 -0.707668
vn 0.710717 0.076384 -0.699319
vn 0.996953 0.071802 -0.030491
vn 0.049060 0.108321 -0.992905
vn -0.050586 0.998207 0.032011
vn -0.036048 0.719487 0.693570
vn 0.035978 0.719490 0.693571
vn 0.050592 0.998207 0.031990
vn -0.715302 0.698456 0.022410
vn -0.715294 0.698463 -0.022440
vn -0.050593 0.998207 -0.031986
vn 0.715294 0.698463 0.022440
vn 0.715294 0.698463 -0.022440
vn 0.050593 0.998207 -0.031986
vn -0.035982 0.719489 -0.693571
vn 0.035982 0.719489 -0.693571
vn -0.575183 -0.559241 0.597004
vn 0.580415 -0.565368 0.586069
vn -0.575278 -0.576056 -0.580702
vn 0.580415 -0.564946 -0.586476
vn -0.584976 0.583916 0.562890
vn 0.584550 0.584140 0.563100
vn -0.584550 0.584140 -0.563100
vn 0.584550 0.584140 -0.563100
s 1
g polySurface2 pCube4
usemtl initialShadingGroup
f 2/1/1 1/2/2 17/3/3 16/4/4
f 1/2/2 6/5/5 18/6/6 17/3/3
f 4/7/7 3/8/8 11/9/9 10/10/10
f 11/9/9 3/8/8 2/11/1 12/12/11
f 6/5/5 5/13/12 29/14/13 28/15/14
f 5/13/12 4/16/7 30/17/15 29/14/13
f 8/18/16 7/19/17 21/20/18 20/21/19
f 7/19/17 12/22/11 22/23/20 21/20/18
f 10/24/10 9/25/21 33/26/22 32/27/23
f 9/25/21 8/18/16 34/28/24 33/26/22
f 14/29/25 13/30/26 39/31/27 38/32/28
f 13/30/26 18/6/6 40/33/29 39/31/27
f 16/34/4 15/35/30 23/36/31 22/37/20
f 15/35/30 14/38/25 24/39/32 23/36/31
f 20/21/19 19/40/33 47/41/34 46/42/35
f 19/40/33 24/43/32 48/44/36 47/41/34
f 26/45/37 25/46/38 31/47/39 36/48/40
f 25/46/38 30/49/15 32/50/23 31/47/39
f 28/15/14 27/51/41 41/52/42 40/33/29
f 27/51/41 26/53/37 42/54/43 41/52/42
f 36/55/40 35/56/44 45/57/45 44/58/46
f 35/56/44 34/28/24 46/42/35 45/57/45
f 38/59/28 37/60/47 43/61/48 48/62/36
f 37/60/47 42/63/43 44/64/46 43/61/48
f 42/63/43 26/45/37 36/48/40 44/64/46
f 2/11/1 16/65/4 22/66/20 12/12/11
f 46/42/35 34/28/24 8/18/16 20/21/19
f 28/15/14 40/33/29 18/6/6 6/5/5
f 30/49/15 4/7/7 10/10/10 32/50/23
f 14/38/25 38/59/28 48/62/36 24/39/32
f 5/13/12 6/5/5 1/2/2 49/67/49
f 1/2/2 2/1/1 3/68/8 49/67/49
f 3/68/8 4/16/7 5/13/12 49/67/49
f 11/69/9 12/22/11 7/19/17 50/70/50
f 7/19/17 8/18/16 9/25/21 50/70/50
f 9/25/21 10/24/10 11/69/9 50/70/50
f 17/3/3 18/6/6 13/30/26 51/71/51
f 13/30/26 14/29/25 15/72/30 51/71/51
f 15/72/30 16/4/4 17/3/3 51/71/51
f 23/73/31 24/43/32 19/40/33 52/74/52
f 19/40/33 20/21/19 21/20/18 52/74/52
f 21/20/18 22/23/20 23/73/31 52/74/52
f 29/14/13 30/17/15 25/75/38 53/76/53
f 25/75/38 26/53/37 27/51/41 53/76/53
f 27/51/41 28/15/14 29/14/13 53/76/53
f 35/56/44 36/55/40 31/77/39 54/78/54
f 31/77/39 32/27/23 33/26/22 54/78/54
f 33/26/22 34/28/24 35/56/44 54/78/54
f 41/52/42 42/54/43 37/79/47 55/80/55
f 37/79/47 38/32/28 39/31/27 55/80/55
f 39/31/27 40/33/29 41/52/42 55/80/55
f 47/41/34 48/44/36 43/81/48 56/82/56
f 43/81/48 44/58/46 45/57/45 56/82/56
f 45/57/45 46/42/35 47/41/34 56/82/56
