# This file uses centimeters as units for non-parametric coordinates.

mtllib Puppe.mtl
g default
v 3.971207 -3.676047 -0.852733
v 3.353478 -3.676047 -1.611805
v 2.391342 -3.676047 -2.175495
v 1.178980 -3.676047 -2.506032
v -0.000000 -3.775072 -2.611447
v -1.178980 -3.676047 -2.506032
v -2.391342 -3.676047 -2.175495
v -3.353477 -3.676047 -1.611805
v -3.971206 -3.676047 -0.852733
v -4.184061 -3.676047 -0.000000
v -3.971206 -3.676047 0.852732
v -3.353477 -3.676047 1.611804
v -2.391341 -3.676047 2.175494
v -1.178980 -3.676047 2.506031
v -0.000000 -3.775072 2.611445
v 1.178979 -3.676047 2.506031
v 2.391340 -3.676047 2.175494
v 3.353476 -3.676047 1.611804
v 3.971205 -3.676047 0.852732
v 4.184060 -3.676047 -0.000000
v 2.983734 7.094168 -0.854673
v 2.542063 7.094168 -1.625685
v 1.854145 7.094168 -2.237564
v 0.987318 7.094168 -2.630414
v -0.000000 7.094168 -2.765781
v -0.987318 7.094168 -2.630414
v -1.854145 7.094168 -2.237563
v -2.542063 7.094168 -1.625685
v -2.983733 7.094168 -0.854673
v -3.135921 7.094168 -0.000000
v -2.983733 7.094168 0.854673
v -2.542062 7.094168 1.625683
v -1.854145 7.094168 2.237563
v -0.987317 7.094168 2.630412
v -0.000000 7.094168 2.765779
v 0.987317 7.094168 2.630412
v 1.854144 7.094168 2.237562
v 2.542062 7.094168 1.625683
v 2.983732 7.094168 0.854673
v 3.135921 7.094168 -0.000000
v -2.797698 15.131780 -0.909027
v -2.379864 15.131780 -1.729072
v -1.729073 15.131780 -2.379864
v -0.909027 15.131780 -2.797697
v -0.000000 15.131780 -2.941674
v 0.909027 15.131780 -2.797698
v 1.729072 15.131780 -2.379864
v 2.379863 15.131780 -1.729072
v 2.797697 15.131780 -0.909027
v 2.941673 15.131780 0.000000
v 2.797697 15.131780 0.909027
v 2.379863 15.131780 1.729072
v 1.729072 15.131780 2.379863
v 0.909027 15.131780 2.797698
v 0.000000 15.131780 2.941672
v -0.909027 15.131780 2.797696
v -1.729071 15.131780 2.379863
v -2.379863 15.131780 1.729072
v -2.797696 15.131780 0.909027
v -2.941672 15.131780 0.000000
v -1.880835 8.541285 -0.605707
v -1.602422 8.541285 -1.152122
v -1.168784 8.541285 -1.585760
v -0.622368 8.541285 -1.864173
v 0.000000 8.541285 -1.960107
v 0.622368 8.541285 -1.864173
v 1.168784 8.541285 -1.585760
v 1.602422 8.541285 -1.152122
v 1.880834 8.541285 -0.605706
v 1.976769 8.541285 -0.000000
v 1.880834 8.541285 0.605706
v 1.602421 8.541285 1.152122
v 1.168784 8.541285 1.585759
v 0.622368 8.541285 1.864172
v 0.000000 8.541285 1.960106
v -0.622368 8.541285 1.864172
v -1.168783 8.541285 1.585759
v -1.602421 8.541285 1.152121
v -1.880834 8.541285 0.605706
v -1.976768 8.541285 -0.000000
v -2.797698 18.655455 -0.909025
v -2.379864 18.655455 -1.729075
v -0.000000 18.655455 -0.000000
v -1.729073 18.655455 -2.379867
v -0.909027 18.655455 -2.797700
v -0.000000 18.655455 -2.941674
v 0.909027 18.655455 -2.797698
v 1.729072 18.655455 -2.379866
v 2.379863 18.655455 -1.729074
v 2.797697 18.655455 -0.909027
v 2.941673 18.655455 0.000000
v 2.797697 18.655455 0.909027
v 2.379863 18.655455 1.729072
v 1.729072 18.655455 2.379863
v 0.909027 18.655455 2.797697
v 0.000000 18.655455 2.941672
v -0.909027 18.655455 2.797696
v -1.729071 18.655455 2.379865
v -2.379863 18.655455 1.729074
v -2.797696 18.655455 0.909027
v -2.941672 18.655455 0.000004
v 10.040797 10.035760 -0.763610
v 10.040797 9.684765 -1.452472
v 10.040797 9.138081 -1.999156
v 10.040797 8.449219 -2.350149
v 10.040797 7.685609 -2.471093
v 10.040797 6.922000 -2.350148
v 10.040797 6.233137 -1.999156
v 10.040797 5.686453 -1.452472
v 10.040797 5.335461 -0.763610
v 10.040797 5.214516 -0.000000
v 10.040797 5.335461 0.763609
v 10.040797 5.686453 1.452471
v 10.040797 6.233138 1.999155
v 10.040797 6.922000 2.350148
v 10.040797 7.685609 2.471092
v 10.040797 8.449219 2.350148
v 10.040797 9.138081 1.999155
v 10.040797 9.684765 1.452471
v 10.040797 10.035757 0.763609
v 10.040797 10.156702 -0.000000
v 9.948413 7.685609 0.000000
v 0.000000 10.442476 -0.895760
v 0.000000 10.030739 -1.703837
v -0.000000 9.389445 -2.345130
v -0.000000 8.581368 -2.756865
v 0.000000 7.685609 -2.898739
v -0.000000 6.789850 -2.756865
v -0.000000 5.981773 -2.345129
v -0.000000 5.340480 -1.703836
v -0.000000 4.928744 -0.895759
v -0.000000 4.786870 0.000000
v 0.000000 4.928744 0.895759
v 0.000000 5.340480 1.703836
v 0.000000 5.981773 2.345129
v 0.000000 6.789850 2.756864
v 0.000000 7.685609 2.898738
v -0.000000 8.581368 2.756864
v -0.000000 9.389445 2.345129
v 0.000000 10.030739 1.703835
v 0.000000 10.442472 0.895759
v -0.000000 10.584349 0.000000
v -10.040797 10.035760 -0.763610
v -10.040797 9.684765 -1.452472
v -10.040797 9.138081 -1.999156
v -10.040797 8.449219 -2.350149
v -10.040797 7.685609 -2.471093
v -10.040797 6.922000 -2.350148
v -10.040797 6.233137 -1.999156
v -10.040797 5.686453 -1.452472
v -10.040797 5.335461 -0.763610
v -10.040797 5.214516 -0.000000
v -10.040797 5.335461 0.763609
v -10.040797 5.686453 1.452471
v -10.040797 6.233138 1.999155
v -10.040797 6.922000 2.350148
v -10.040797 7.685609 2.471092
v -10.040797 8.449219 2.350148
v -10.040797 9.138081 1.999155
v -10.040797 9.684765 1.452471
v -10.040797 10.035757 0.763609
v -10.040797 10.156702 -0.000000
v -9.948413 7.685609 0.000000
v 8.861187 9.564185 -0.610386
v 8.861187 9.283621 -1.161023
v 8.861187 8.846632 -1.598011
v 8.861187 8.295995 -1.878576
v 8.861187 7.685608 -1.975249
v 8.861187 7.075223 -1.878575
v 8.861187 6.524586 -1.598010
v 8.861187 6.087598 -1.161022
v 8.861187 5.807034 -0.610385
v 8.861187 5.710359 -0.000000
v 8.861187 5.807034 0.610385
v 8.861187 6.087598 1.161022
v 8.861187 6.524586 1.598011
v 8.861187 7.075223 1.878575
v 8.861187 7.685608 1.975248
v 8.861187 8.295995 1.878575
v 8.861187 8.846632 1.598011
v 8.861187 9.283621 1.161021
v 8.861187 9.564183 0.610385
v 8.861187 9.660858 -0.000000
v -8.861187 9.564185 -0.610386
v -8.861187 9.283621 -1.161023
v -8.861187 8.846632 -1.598011
v -8.861187 8.295995 -1.878576
v -8.861187 7.685608 -1.975249
v -8.861187 7.075223 -1.878575
v -8.861187 6.524586 -1.598010
v -8.861187 6.087598 -1.161022
v -8.861187 5.807034 -0.610385
v -8.861187 5.710359 -0.000000
v -8.861187 5.807034 0.610385
v -8.861187 6.087598 1.161022
v -8.861187 6.524586 1.598011
v -8.861187 7.075223 1.878575
v -8.861187 7.685608 1.975248
v -8.861187 8.295995 1.878575
v -8.861187 8.846632 1.598011
v -8.861187 9.283621 1.161021
v -8.861187 9.564183 0.610385
v -8.861187 9.660858 -0.000000
v 8.362864 9.974847 -0.743818
v 8.362864 9.632949 -1.414826
v 8.362864 9.100435 -1.947341
v 8.362864 8.429426 -2.289237
v 8.362864 7.685609 -2.407046
v 8.362864 6.941791 -2.289237
v 8.362864 6.270782 -1.947341
v 8.362864 5.738268 -1.414826
v 8.362864 5.396372 -0.743818
v 8.362864 5.278563 -0.000000
v 8.362864 5.396372 0.743818
v 8.362864 5.738268 1.414826
v 8.362864 6.270783 1.947340
v 8.362864 6.941791 2.289236
v 8.362864 7.685609 2.407045
v 8.362864 8.429426 2.289236
v 8.362864 9.100435 1.947340
v 8.362864 9.632949 1.414825
v 8.362864 9.974844 0.743818
v 8.362864 10.092653 -0.000000
v -8.362864 9.974847 -0.743818
v -8.362864 9.632949 -1.414826
v -8.362864 9.100435 -1.947341
v -8.362864 8.429426 -2.289237
v -8.362864 7.685609 -2.407046
v -8.362864 6.941791 -2.289237
v -8.362864 6.270782 -1.947341
v -8.362864 5.738268 -1.414826
v -8.362864 5.396372 -0.743818
v -8.362864 5.278563 -0.000000
v -8.362864 5.396372 0.743818
v -8.362864 5.738268 1.414826
v -8.362864 6.270783 1.947340
v -8.362864 6.941791 2.289236
v -8.362864 7.685609 2.407045
v -8.362864 8.429426 2.289236
v -8.362864 9.100435 1.947340
v -8.362864 9.632949 1.414825
v -8.362864 9.974844 0.743818
v -8.362864 10.092653 -0.000000
v -1.725829 -16.521437 -0.767667
v -2.073481 -16.461052 -1.460189
v -2.614965 -16.367001 -2.009777
v -3.297271 -16.248489 -2.362635
v -4.053614 -16.117115 -2.484222
v -4.809955 -15.985742 -2.362634
v -5.492260 -15.867227 -2.009777
v -6.033738 -15.773172 -1.460188
v -6.381391 -15.712787 -0.767666
v -6.501187 -15.691981 0.000000
v -6.381391 -15.712787 0.767666
v -6.033738 -15.773172 1.460188
v -5.492260 -15.867226 2.009777
v -4.809955 -15.985743 2.362635
v -4.053614 -16.117115 2.484221
v -3.297271 -16.248489 2.362635
v -2.614965 -16.367001 2.009777
v -2.073482 -16.461052 1.460188
v -1.725831 -16.521439 0.767666
v -1.606039 -16.542248 0.000000
v 0.057921 -3.468143 -0.612871
v -0.219629 -3.419934 -1.165749
v -0.651924 -3.344847 -1.604516
v -1.196646 -3.250230 -1.886222
v -1.800476 -3.145348 -1.983291
v -2.404305 -3.040466 -1.886222
v -2.949028 -2.945849 -1.604516
v -3.381321 -2.870762 -1.165749
v -3.658871 -2.822554 -0.612870
v -3.754509 -2.805942 0.000000
v -3.658871 -2.822554 0.612870
v -3.381321 -2.870762 1.165749
v -2.949028 -2.945849 1.604516
v -2.404304 -3.040466 1.886221
v -1.800476 -3.145348 1.983290
v -1.196647 -3.250230 1.886221
v -0.651924 -3.344847 1.604516
v -0.219630 -3.419934 1.165749
v 0.057920 -3.468143 0.612870
v 0.153557 -3.484755 0.000000
v -4.025514 -15.955340 0.000000
v 1.725829 -16.521439 -0.767667
v 2.073481 -16.461052 -1.460189
v 2.614964 -16.367001 -2.009777
v 3.297270 -16.248486 -2.362635
v 4.053612 -16.117111 -2.484222
v 4.809955 -15.985739 -2.362634
v 5.492260 -15.867228 -2.009777
v 6.033738 -15.773172 -1.460188
v 6.381390 -15.712787 -0.767666
v 6.501185 -15.691979 0.000000
v 6.381390 -15.712787 0.767666
v 6.033737 -15.773171 1.460188
v 5.492259 -15.867227 2.009777
v 4.809953 -15.985739 2.362635
v 4.053612 -16.117111 2.484221
v 3.297270 -16.248486 2.362635
v 2.614964 -16.367001 2.009777
v 2.073482 -16.461052 1.460188
v 1.725831 -16.521439 0.767666
v 1.606038 -16.542246 0.000000
v -0.057921 -3.468143 -0.612871
v 0.219629 -3.419934 -1.165749
v 0.651923 -3.344847 -1.604516
v 1.196645 -3.250231 -1.886222
v 1.800475 -3.145348 -1.983291
v 2.404305 -3.040466 -1.886222
v 2.949027 -2.945850 -1.604516
v 3.381321 -2.870762 -1.165749
v 3.658871 -2.822554 -0.612870
v 3.754509 -2.805942 0.000000
v 3.658871 -2.822554 0.612870
v 3.381321 -2.870762 1.165749
v 2.949027 -2.945850 1.604516
v 2.404305 -3.040466 1.886221
v 1.800475 -3.145348 1.983290
v 1.196646 -3.250230 1.886221
v 0.651924 -3.344847 1.604516
v 0.219630 -3.419934 1.165749
v -0.057920 -3.468143 0.612870
v -0.153557 -3.484755 0.000000
v 4.025512 -15.955338 0.000000
v -1.447127 -14.916887 -0.767667
v -1.794778 -14.856503 -1.460189
v -2.336262 -14.762451 -2.009777
v -3.018568 -14.643939 -2.362634
v -3.774910 -14.512568 -2.484221
v -4.531252 -14.381193 -2.362634
v -5.213557 -14.262679 -2.009777
v -5.755036 -14.168625 -1.460188
v -6.102688 -14.108239 -0.767666
v -6.222484 -14.087432 0.000000
v -6.102688 -14.108239 0.767666
v -5.755036 -14.168625 1.460188
v -5.213557 -14.262677 2.009777
v -4.531251 -14.381195 2.362634
v -3.774910 -14.512568 2.484221
v -3.018568 -14.643939 2.362634
v -2.336262 -14.762451 2.009777
v -1.794779 -14.856503 1.460188
v -1.447128 -14.916890 0.767666
v -1.327337 -14.937699 0.000000
v 1.794778 -14.856503 -1.460189
v 1.447127 -14.916890 -0.767667
v 1.327336 -14.937696 0.000000
v 1.447129 -14.916890 0.767666
v 1.794779 -14.856503 1.460188
v 2.336262 -14.762451 2.009777
v 3.018567 -14.643937 2.362634
v 3.774909 -14.512564 2.484221
v 4.531250 -14.381191 2.362634
v 5.213556 -14.262679 2.009777
v 5.755034 -14.168624 1.460188
v 6.102688 -14.108239 0.767666
v 6.222483 -14.087431 0.000000
v 6.102688 -14.108239 -0.767666
v 5.755036 -14.168625 -1.460188
v 5.213557 -14.262680 -2.009777
v 4.531251 -14.381191 -2.362634
v 3.774909 -14.512564 -2.484221
v 3.018567 -14.643937 -2.362634
v 2.336261 -14.762451 -2.009777
vt 0.435398 0.995152
vt 0.410510 0.995555
vt 0.382149 0.995561
vt 0.350190 0.995503
vt 0.320087 0.998047
vt 0.289973 0.995630
vt 0.258014 0.995824
vt 0.229653 0.995938
vt 0.204764 0.995640
vt 0.182436 0.994582
vt 0.160182 0.992479
vt 0.135500 0.989263
vt 0.107439 0.985150
vt 0.075827 0.980450
vt 0.045673 0.978595
vt 0.564270 0.979418
vt 0.532678 0.984251
vt 0.504635 0.988483
vt 0.479966 0.991803
vt 0.457721 0.994000
vt 0.415059 0.720833
vt 0.392468 0.721449
vt 0.369053 0.721606
vt 0.344848 0.721571
vt 0.319502 0.721578
vt 0.294157 0.721678
vt 0.269952 0.721816
vt 0.246537 0.721758
vt 0.223944 0.721237
vt 0.201897 0.720054
vt 0.179903 0.718115
vt 0.157462 0.715443
vt 0.134273 0.712198
vt 0.110330 0.708647
vt 0.553681 0.703983
vt 0.528619 0.707763
vt 0.504691 0.711415
vt 0.481515 0.714759
vt 0.459086 0.717525
vt 0.437101 0.719557
vt 0.594415 0.977435
vt 0.085252 0.704973
vt 0.154732 0.096516
vt 0.177157 0.093914
vt 0.194866 0.262092
vt 0.179056 0.264002
vt 0.199617 0.092097
vt 0.210748 0.260752
vt 0.222093 0.091003
vt 0.226683 0.260099
vt 0.244581 0.090783
vt 0.243059 0.259908
vt 0.267063 0.091367
vt 0.259428 0.260293
vt 0.289525 0.092753
vt 0.275336 0.261254
vt 0.311952 0.094939
vt 0.291184 0.262792
vt 0.334334 0.097915
vt 0.306945 0.264909
vt 0.356661 0.101672
vt 0.322589 0.267610
vt 0.378927 0.106198
vt 0.338084 0.270904
vt 0.401134 0.111480
vt 0.353393 0.274808
vt 0.423281 0.117511
vt 0.368472 0.279341
vt 0.445350 0.124262
vt 0.383305 0.284582
vt 0.467387 0.131800
vt 0.398148 0.290640
vt 0.020972 0.127794
vt 0.043201 0.120749
vt 0.102185 0.282405
vt 0.087146 0.288167
vt 0.065443 0.114446
vt 0.117142 0.277487
vt 0.087708 0.108864
vt 0.132352 0.273212
vt 0.110007 0.104007
vt 0.147767 0.269552
vt 0.132348 0.099885
vt 0.163346 0.266486
vt 0.987348 0.052950
vt 0.995707 0.078674
vt 0.910320 0.092198
vt 0.971450 0.031068
vt 0.949568 0.015170
vt 0.923844 0.006811
vt 0.896796 0.006811
vt 0.871072 0.015170
vt 0.849190 0.031068
vt 0.833292 0.052950
vt 0.824933 0.078674
vt 0.824933 0.105722
vt 0.833292 0.131446
vt 0.849190 0.153328
vt 0.871072 0.169227
vt 0.896796 0.177585
vt 0.923844 0.177585
vt 0.949568 0.169226
vt 0.971450 0.153328
vt 0.987348 0.131446
vt 0.995706 0.105722
vt 0.144857 0.008259
vt 0.169717 0.005415
vt 0.194745 0.003396
vt 0.219886 0.002232
vt 0.245092 0.001953
vt 0.270297 0.002565
vt 0.295444 0.004059
vt 0.320478 0.006419
vt 0.345343 0.009610
vt 0.369984 0.013584
vt 0.394350 0.018266
vt 0.418397 0.023551
vt 0.442092 0.029287
vt 0.465429 0.035245
vt 0.488440 0.041102
vt 0.001953 0.037310
vt 0.024860 0.031962
vt 0.048149 0.026437
vt 0.071824 0.021100
vt 0.095861 0.016193
vt 0.120221 0.011876
vt 0.481696 0.420225
vt 0.481244 0.439475
vt 0.269226 0.431068
vt 0.269227 0.409035
vt 0.480917 0.458770
vt 0.269231 0.453035
vt 0.480711 0.478097
vt 0.269239 0.474959
vt 0.480621 0.497441
vt 0.269249 0.496865
vt 0.480645 0.516787
vt 0.269260 0.518773
vt 0.480783 0.536123
vt 0.269270 0.540707
vt 0.481035 0.555433
vt 0.269277 0.562690
vt 0.481403 0.574705
vt 0.269279 0.584745
vt 0.481894 0.593927
vt 0.269277 0.606896
vt 0.482520 0.613089
vt 0.269268 0.629168
vt 0.483309 0.632188
vt 0.269252 0.651589
vt 0.484321 0.651236
vt 0.269227 0.674183
vt 0.485702 0.670267
vt 0.269188 0.696971
vt 0.487857 0.689350
vt 0.269125 0.719961
vt 0.488658 0.306062
vt 0.486468 0.324978
vt 0.269352 0.296957
vt 0.269423 0.273979
vt 0.484997 0.343900
vt 0.269305 0.319721
vt 0.483891 0.362871
vt 0.269272 0.342283
vt 0.483003 0.381915
vt 0.269248 0.364670
vt 0.482279 0.401035
vt 0.269234 0.386911
vt 0.967184 0.670751
vt 0.983233 0.692840
vt 0.905475 0.732460
vt 0.945095 0.654702
vt 0.919127 0.646265
vt 0.891823 0.646265
vt 0.865855 0.654702
vt 0.843766 0.670751
vt 0.827718 0.692841
vt 0.819280 0.718808
vt 0.819280 0.746112
vt 0.827718 0.772080
vt 0.843766 0.794169
vt 0.865856 0.810218
vt 0.891824 0.818655
vt 0.919127 0.818655
vt 0.945095 0.810218
vt 0.967184 0.794169
vt 0.983233 0.772080
vt 0.991670 0.746112
vt 0.991670 0.718808
vt 0.006975 0.422455
vt 0.039608 0.420875
vt 0.040196 0.439997
vt 0.007606 0.441377
vt 0.040649 0.459167
vt 0.008083 0.460321
vt 0.040971 0.478362
vt 0.008416 0.479280
vt 0.041166 0.497567
vt 0.008613 0.498245
vt 0.041237 0.516767
vt 0.008677 0.517206
vt 0.041183 0.535944
vt 0.008609 0.536155
vt 0.041003 0.555083
vt 0.008406 0.555081
vt 0.040692 0.574161
vt 0.008065 0.573973
vt 0.040247 0.593148
vt 0.007584 0.592824
vt 0.039663 0.611998
vt 0.006967 0.611633
vt 0.038943 0.630634
vt 0.006252 0.630414
vt 0.038112 0.648915
vt 0.005559 0.649217
vt 0.037245 0.666591
vt 0.005237 0.668143
vt 0.036500 0.683245
vt 0.006238 0.687298
vt 0.002653 0.308081
vt 0.034094 0.311948
vt 0.034906 0.328201
vt 0.001953 0.327726
vt 0.035954 0.345830
vt 0.002861 0.346884
vt 0.037026 0.364177
vt 0.004070 0.365816
vt 0.038017 0.382899
vt 0.005206 0.384685
vt 0.038882 0.401826
vt 0.006178 0.403558
vt 0.891823 0.994905
vt 0.905475 0.908710
vt 0.919127 0.994905
vt 0.865855 0.986467
vt 0.843766 0.970419
vt 0.827717 0.948329
vt 0.819280 0.922362
vt 0.819280 0.895058
vt 0.827717 0.869090
vt 0.843766 0.847001
vt 0.865855 0.830952
vt 0.891823 0.822515
vt 0.919127 0.822515
vt 0.945095 0.830952
vt 0.967184 0.847001
vt 0.983233 0.869090
vt 0.991670 0.895058
vt 0.991670 0.922362
vt 0.983233 0.948329
vt 0.967184 0.970419
vt 0.945095 0.986467
vt 0.531179 0.422253
vt 0.530639 0.441153
vt 0.498031 0.440114
vt 0.498524 0.421019
vt 0.530255 0.460078
vt 0.497676 0.459263
vt 0.530018 0.479024
vt 0.497453 0.478445
vt 0.529918 0.497983
vt 0.497359 0.497644
vt 0.529952 0.516946
vt 0.497389 0.516844
vt 0.530117 0.535905
vt 0.497542 0.536030
vt 0.530414 0.554846
vt 0.497819 0.555184
vt 0.530846 0.573761
vt 0.498223 0.574285
vt 0.531417 0.592636
vt 0.498758 0.593303
vt 0.532123 0.611465
vt 0.499429 0.612190
vt 0.532936 0.630255
vt 0.500236 0.630865
vt 0.533752 0.649046
vt 0.501169 0.649173
vt 0.534250 0.667941
vt 0.502173 0.666826
vt 0.533493 0.687089
vt 0.503049 0.683310
vt 0.534579 0.307810
vt 0.535539 0.327478
vt 0.502665 0.328484
vt 0.503338 0.312063
vt 0.534844 0.346681
vt 0.501774 0.346135
vt 0.533787 0.365644
vt 0.500820 0.364446
vt 0.532763 0.384518
vt 0.499929 0.383121
vt 0.531886 0.403377
vt 0.499158 0.402006
vt 0.056441 0.420207
vt 0.056984 0.439483
vt 0.057408 0.458799
vt 0.057714 0.478139
vt 0.057904 0.497490
vt 0.057979 0.516838
vt 0.057940 0.536168
vt 0.057784 0.555467
vt 0.057504 0.574721
vt 0.057092 0.593920
vt 0.056528 0.613052
vt 0.055775 0.632112
vt 0.054763 0.651105
vt 0.053333 0.670050
vt 0.051141 0.688979
vt 0.049339 0.305629
vt 0.051502 0.324697
vt 0.052932 0.343707
vt 0.054046 0.362737
vt 0.054980 0.381826
vt 0.055774 0.400984
vt 0.926118 0.387884
vt 0.929382 0.405420
vt 0.667626 0.452455
vt 0.665004 0.438390
vt 0.932417 0.422996
vt 0.670062 0.466553
vt 0.935221 0.440608
vt 0.672312 0.480683
vt 0.937793 0.458256
vt 0.674376 0.494840
vt 0.940132 0.475937
vt 0.676253 0.509024
vt 0.942238 0.493647
vt 0.677942 0.523231
vt 0.944111 0.511385
vt 0.679443 0.537458
vt 0.945753 0.529148
vt 0.680755 0.551704
vt 0.947166 0.546933
vt 0.681879 0.565965
vt 0.948353 0.564740
vt 0.682814 0.580238
vt 0.949318 0.582566
vt 0.683558 0.594521
vt 0.950065 0.600412
vt 0.684110 0.608810
vt 0.950599 0.618279
vt 0.684469 0.623102
vt 0.950920 0.636167
vt 0.684630 0.637393
vt 0.901940 0.283511
vt 0.906495 0.300814
vt 0.649117 0.368668
vt 0.645383 0.354868
vt 0.910844 0.318150
vt 0.652664 0.382522
vt 0.914985 0.335523
vt 0.656027 0.396424
vt 0.918915 0.352935
vt 0.659204 0.410372
vt 0.922628 0.370389
vt 0.662196 0.424362
vt 0.741704 0.823664
vt 0.767778 0.832117
vt 0.727999 0.910388
vt 0.714294 0.823664
vt 0.688219 0.832117
vt 0.666022 0.848197
vt 0.649865 0.870339
vt 0.641323 0.896384
vt 0.641228 0.923794
vt 0.649590 0.949897
vt 0.665594 0.972150
vt 0.687680 0.988384
vt 0.713696 0.997015
vt 0.741105 0.997205
vt 0.767237 0.988932
vt 0.789974 0.972578
vt 0.806407 0.949898
vt 0.814769 0.923794
vt 0.814674 0.896384
vt 0.806133 0.870339
vt 0.789976 0.848197
vt 0.554618 0.130736
vt 0.552935 0.112978
vt 0.817853 0.089717
vt 0.819203 0.103960
vt 0.556533 0.148469
vt 0.820742 0.118184
vt 0.558680 0.166173
vt 0.822467 0.132387
vt 0.561060 0.183848
vt 0.824380 0.146566
vt 0.563672 0.201490
vt 0.826480 0.160719
vt 0.566517 0.219097
vt 0.828766 0.174842
vt 0.569594 0.236666
vt 0.831238 0.188933
vt 0.572899 0.254195
vt 0.833897 0.202991
vt 0.576430 0.271683
vt 0.836741 0.217011
vt 0.580185 0.289129
vt 0.839771 0.230991
vt 0.584158 0.306532
vt 0.842986 0.244929
vt 0.588345 0.323894
vt 0.846387 0.258820
vt 0.592744 0.341216
vt 0.849974 0.272663
vt 0.597355 0.358499
vt 0.853748 0.286452
vt 0.547863 0.023862
vt 0.547484 0.005970
vt 0.813735 0.004031
vt 0.813940 0.018322
vt 0.548449 0.041728
vt 0.814341 0.032614
vt 0.549243 0.059572
vt 0.814934 0.046903
vt 0.550252 0.077395
vt 0.815718 0.061185
vt 0.551481 0.095197
vt 0.816691 0.075457
vt 0.641323 0.718985
vt 0.727999 0.732989
vt 0.641228 0.746395
vt 0.649865 0.692940
vt 0.666022 0.670798
vt 0.688219 0.654717
vt 0.714294 0.646265
vt 0.741704 0.646265
vt 0.767778 0.654717
vt 0.789975 0.670798
vt 0.806133 0.692940
vt 0.814674 0.718985
vt 0.814769 0.746395
vt 0.806407 0.772498
vt 0.790403 0.794751
vt 0.767777 0.811259
vt 0.741105 0.819805
vt 0.713696 0.819616
vt 0.687681 0.810984
vt 0.665594 0.794751
vt 0.649590 0.772498
vt 0.962924 0.380849
vt 0.966279 0.398833
vt 0.969400 0.416872
vt 0.972282 0.434957
vt 0.974925 0.453082
vt 0.977328 0.471240
vt 0.979490 0.489425
vt 0.981410 0.507631
vt 0.983091 0.525848
vt 0.984534 0.544069
vt 0.985746 0.562279
vt 0.986736 0.580465
vt 0.987527 0.598606
vt 0.988166 0.616679
vt 0.988755 0.634659
vt 0.938683 0.274706
vt 0.943004 0.292119
vt 0.947321 0.309661
vt 0.951515 0.327320
vt 0.955530 0.345081
vt 0.959338 0.362928
vt 0.515614 0.116333
vt 0.517332 0.134547
vt 0.514134 0.098117
vt 0.512889 0.079910
vt 0.511866 0.061729
vt 0.511044 0.043597
vt 0.510371 0.025545
vt 0.509734 0.007615
vt 0.556188 0.350012
vt 0.560567 0.367460
vt 0.551832 0.332461
vt 0.547604 0.314802
vt 0.543556 0.297045
vt 0.539714 0.279204
vt 0.536092 0.261289
vt 0.532699 0.243312
vt 0.529540 0.225280
vt 0.526618 0.207201
vt 0.523935 0.189082
vt 0.521493 0.170929
vt 0.519292 0.152749
vn 0.914330 0.081563 -0.396672
vn 0.710165 0.051447 -0.702153
vn 0.701986 0.050272 -0.710415
vn 0.910745 0.081007 -0.404947
vn 0.457563 0.018212 -0.888991
vn 0.450107 0.017309 -0.892807
vn 0.219936 -0.004549 -0.975504
vn 0.220046 -0.004541 -0.975479
vn 0.000000 -0.011890 -0.999929
vn 0.000000 -0.011890 -0.999929
vn -0.219936 -0.004549 -0.975504
vn -0.220046 -0.004541 -0.975479
vn -0.457564 0.018212 -0.888990
vn -0.450108 0.017309 -0.892806
vn -0.710165 0.051447 -0.702153
vn -0.701986 0.050272 -0.710415
vn -0.914329 0.081563 -0.396673
vn -0.910744 0.081007 -0.404948
vn -0.995566 0.094064 -0.000000
vn -0.995566 0.094064 -0.000000
vn -0.914329 0.081563 0.396674
vn -0.910744 0.081007 0.404948
vn -0.710165 0.051447 0.702153
vn -0.701985 0.050272 0.710415
vn -0.457563 0.018212 0.888991
vn -0.450107 0.017309 0.892807
vn -0.219936 -0.004549 0.975504
vn -0.220046 -0.004541 0.975479
vn 0.000000 -0.011890 0.999929
vn 0.000000 -0.011890 0.999929
vn 0.219936 -0.004549 0.975504
vn 0.220046 -0.004541 0.975479
vn 0.457563 0.018212 0.888991
vn 0.450108 0.017309 0.892807
vn 0.710165 0.051447 0.702153
vn 0.701986 0.050272 0.710415
vn 0.914329 0.081563 0.396674
vn 0.910744 0.081007 0.404948
vn 0.995566 0.094064 0.000001
vn 0.995566 0.094064 0.000001
vn -0.947319 -0.088399 -0.307851
vn -0.805782 -0.088613 -0.585545
vn -0.800512 -0.145332 -0.581429
vn -0.941031 -0.144984 -0.305680
vn -0.585356 -0.088946 -0.805883
vn -0.581657 -0.145873 -0.800248
vn -0.306662 -0.089623 -0.947590
vn -0.304276 -0.146674 -0.941224
vn -0.000000 -0.090071 -0.995935
vn -0.000000 -0.147082 -0.989124
vn 0.306662 -0.089622 -0.947590
vn 0.304277 -0.146675 -0.941224
vn 0.585356 -0.088946 -0.805883
vn 0.581657 -0.145873 -0.800247
vn 0.805782 -0.088613 -0.585545
vn 0.800512 -0.145332 -0.581429
vn 0.947319 -0.088399 -0.307852
vn 0.941031 -0.144984 -0.305680
vn 0.996092 -0.088326 0.000000
vn 0.989452 -0.144864 0.000000
vn 0.947319 -0.088399 0.307852
vn 0.941031 -0.144984 0.305681
vn 0.805782 -0.088613 0.585546
vn 0.800511 -0.145331 0.581429
vn 0.585356 -0.088946 0.805883
vn 0.581657 -0.145873 0.800248
vn 0.306662 -0.089622 0.947590
vn 0.304276 -0.146675 0.941224
vn -0.000001 -0.090071 0.995935
vn -0.000001 -0.147082 0.989124
vn -0.306662 -0.089622 0.947590
vn -0.304277 -0.146674 0.941224
vn -0.585355 -0.088946 0.805883
vn -0.581657 -0.145873 0.800248
vn -0.805782 -0.088613 0.585545
vn -0.800512 -0.145332 0.581429
vn -0.947319 -0.088399 0.307852
vn -0.941031 -0.144984 0.305680
vn -0.996092 -0.088326 0.000001
vn -0.989452 -0.144864 0.000001
vn 0.000000 1.000000 -0.000001
vn 0.000000 1.000000 0.000000
vn 0.000000 1.000000 -0.000000
vn 0.000000 1.000000 -0.000001
vn 0.000000 1.000000 0.000000
vn 0.000000 1.000000 0.000000
vn 0.000000 1.000000 0.000000
vn 0.000000 1.000000 0.000000
vn 0.000000 1.000000 0.000000
vn 0.000000 1.000000 0.000000
vn 0.000000 1.000000 0.000000
vn 0.000000 1.000000 0.000000
vn 0.000000 1.000000 -0.000001
vn 0.000000 1.000000 -0.000001
vn 0.000000 1.000000 0.000000
vn 0.000000 1.000000 0.000000
vn 0.000000 1.000000 0.000000
vn 0.000000 1.000000 0.000000
vn 0.000000 1.000000 0.000000
vn 0.000000 1.000000 0.000000
vn 0.000000 1.000000 0.000000
vn -0.951057 0.000000 -0.309015
vn -0.809017 -0.000000 -0.587785
vn -0.587785 -0.000001 -0.809017
vn -0.309016 -0.000001 -0.951057
vn -0.000000 -0.000000 -1.000000
vn 0.309016 -0.000000 -0.951057
vn 0.587785 -0.000000 -0.809017
vn 0.809017 -0.000000 -0.587785
vn 0.951057 -0.000000 -0.309017
vn 1.000000 0.000000 0.000000
vn 0.951057 0.000000 0.309017
vn 0.809017 0.000000 0.587785
vn 0.587785 0.000000 0.809017
vn 0.309017 0.000000 0.951057
vn -0.000001 0.000000 1.000000
vn -0.309016 -0.000000 0.951057
vn -0.587784 -0.000000 0.809018
vn -0.809017 -0.000000 0.587785
vn -0.951057 -0.000000 0.309017
vn -1.000000 0.000000 0.000001
vn 0.093704 0.946872 -0.307657
vn 0.093704 0.805457 -0.585200
vn 0.000000 0.809016 -0.587786
vn -0.000000 0.951057 -0.309016
vn 0.093704 0.585199 -0.805457
vn -0.000000 0.587785 -0.809017
vn 0.093704 0.307657 -0.946872
vn -0.000000 0.309017 -0.951057
vn 0.093704 -0.000000 -0.995600
vn -0.000000 -0.000000 -1.000000
vn 0.093704 -0.307658 -0.946872
vn -0.000000 -0.309017 -0.951056
vn 0.093704 -0.585199 -0.805457
vn 0.000000 -0.587785 -0.809017
vn 0.093704 -0.805457 -0.585199
vn 0.000000 -0.809017 -0.587785
vn 0.093704 -0.946872 -0.307657
vn 0.000000 -0.951057 -0.309017
vn 0.093704 -0.995600 -0.000000
vn 0.000000 -1.000000 -0.000000
vn 0.093704 -0.946872 0.307657
vn 0.000000 -0.951057 0.309017
vn 0.093704 -0.805457 0.585199
vn -0.000000 -0.809017 0.587785
vn 0.093704 -0.585199 0.805458
vn 0.000000 -0.587785 0.809017
vn 0.093704 -0.307657 0.946872
vn -0.000000 -0.309017 0.951057
vn 0.093704 -0.000000 0.995600
vn -0.000000 0.000000 1.000000
vn 0.093704 0.307657 0.946872
vn 0.000000 0.309017 0.951057
vn 0.093704 0.585199 0.805457
vn 0.000000 0.587785 0.809017
vn 0.093704 0.805458 0.585199
vn 0.000000 0.809017 0.587785
vn 0.093704 0.946872 0.307657
vn 0.000000 0.951057 0.309017
vn 0.093704 0.995600 0.000002
vn 0.000000 1.000000 0.000002
vn 0.999302 -0.030225 0.021960
vn 0.999302 -0.035531 0.011545
vn 1.000000 -0.000000 -0.000000
vn 0.999302 -0.021961 0.030225
vn 0.999302 -0.011544 0.035531
vn 0.999302 0.000001 0.037360
vn 0.999302 0.011544 0.035531
vn 0.999302 0.021959 0.030225
vn 0.999302 0.030225 0.021960
vn 0.999302 0.035531 0.011545
vn 0.999302 0.037360 0.000000
vn 0.999302 0.035531 -0.011545
vn 0.999302 0.030225 -0.021960
vn 0.999302 0.021960 -0.030225
vn 0.999302 0.011544 -0.035531
vn 0.999302 -0.000000 -0.037360
vn 0.999302 -0.011544 -0.035531
vn 0.999302 -0.021960 -0.030225
vn 0.999302 -0.030225 -0.021960
vn 0.999302 -0.035532 -0.011545
vn 0.999302 -0.037360 -0.000000
vn 0.387503 0.876749 -0.284873
vn 0.035217 0.950467 -0.308825
vn 0.035217 0.808515 -0.587421
vn 0.387502 0.745807 -0.541862
vn 0.035216 0.587421 -0.808515
vn 0.387502 0.541861 -0.745807
vn 0.035216 0.308825 -0.950467
vn 0.387502 0.284873 -0.876749
vn 0.035216 -0.000000 -0.999380
vn 0.387502 0.000000 -0.921869
vn 0.035216 -0.308826 -0.950467
vn 0.387502 -0.284873 -0.876749
vn 0.035216 -0.587422 -0.808515
vn 0.387502 -0.541861 -0.745807
vn 0.035216 -0.808515 -0.587421
vn 0.387502 -0.745807 -0.541861
vn 0.035216 -0.950467 -0.308826
vn 0.387502 -0.876749 -0.284874
vn 0.035216 -0.999380 0.000000
vn 0.387502 -0.921869 0.000000
vn 0.035216 -0.950466 0.308826
vn 0.387502 -0.876749 0.284874
vn 0.035216 -0.808515 0.587421
vn 0.387502 -0.745807 0.541861
vn 0.035216 -0.587421 0.808515
vn 0.387502 -0.541861 0.745807
vn 0.035216 -0.308825 0.950467
vn 0.387502 -0.284873 0.876750
vn 0.035216 0.000000 0.999380
vn 0.387502 0.000000 0.921869
vn 0.035216 0.308825 0.950467
vn 0.387502 0.284873 0.876750
vn 0.035216 0.587421 0.808515
vn 0.387502 0.541861 0.745808
vn 0.035217 0.808515 0.587420
vn 0.387502 0.745807 0.541861
vn 0.035217 0.950467 0.308825
vn 0.387502 0.876749 0.284873
vn 0.035217 0.999380 0.000002
vn 0.387503 0.921869 0.000002
vn -0.999302 -0.030224 0.021960
vn -1.000000 0.000000 -0.000000
vn -0.999302 -0.035531 0.011545
vn -0.999302 -0.021960 0.030225
vn -0.999302 -0.011545 0.035531
vn -0.999302 0.000001 0.037360
vn -0.999302 0.011545 0.035531
vn -0.999302 0.021960 0.030225
vn -0.999302 0.030225 0.021960
vn -0.999302 0.035531 0.011545
vn -0.999302 0.037360 0.000000
vn -0.999302 0.035531 -0.011545
vn -0.999302 0.030225 -0.021960
vn -0.999302 0.021960 -0.030225
vn -0.999302 0.011545 -0.035531
vn -0.999302 -0.000000 -0.037360
vn -0.999302 -0.011545 -0.035531
vn -0.999302 -0.021959 -0.030225
vn -0.999302 -0.030225 -0.021960
vn -0.999302 -0.035532 -0.011545
vn -0.999302 -0.037360 -0.000000
vn -0.387503 0.876749 -0.284873
vn -0.387502 0.745807 -0.541862
vn -0.035217 0.808515 -0.587422
vn -0.035217 0.950467 -0.308825
vn -0.387502 0.541861 -0.745808
vn -0.035216 0.587421 -0.808515
vn -0.387502 0.284873 -0.876749
vn -0.035216 0.308825 -0.950467
vn -0.387502 0.000000 -0.921869
vn -0.035216 -0.000000 -0.999380
vn -0.387502 -0.284873 -0.876749
vn -0.035216 -0.308826 -0.950467
vn -0.387502 -0.541861 -0.745807
vn -0.035216 -0.587421 -0.808515
vn -0.387502 -0.745807 -0.541861
vn -0.035216 -0.808515 -0.587421
vn -0.387502 -0.876749 -0.284874
vn -0.035216 -0.950467 -0.308826
vn -0.387502 -0.921869 -0.000000
vn -0.035216 -0.999380 -0.000000
vn -0.387502 -0.876749 0.284874
vn -0.035216 -0.950467 0.308826
vn -0.387502 -0.745807 0.541861
vn -0.035216 -0.808515 0.587421
vn -0.387502 -0.541861 0.745807
vn -0.035216 -0.587421 0.808515
vn -0.387502 -0.284873 0.876750
vn -0.035216 -0.308825 0.950467
vn -0.387502 0.000000 0.921869
vn -0.035216 -0.000000 0.999380
vn -0.387502 0.284873 0.876749
vn -0.035216 0.308825 0.950467
vn -0.387502 0.541861 0.745808
vn -0.035216 0.587421 0.808515
vn -0.387502 0.745807 0.541861
vn -0.035217 0.808515 0.587421
vn -0.387502 0.876749 0.284873
vn -0.035217 0.950467 0.308825
vn -0.387503 0.921869 0.000002
vn -0.035217 0.999380 0.000002
vn -0.093704 0.946872 -0.307657
vn -0.093704 0.805457 -0.585200
vn -0.093704 0.585199 -0.805457
vn -0.093704 0.307657 -0.946872
vn -0.093704 -0.000000 -0.995600
vn -0.093704 -0.307658 -0.946872
vn -0.093704 -0.585199 -0.805457
vn -0.093704 -0.805458 -0.585199
vn -0.093704 -0.946872 -0.307657
vn -0.093704 -0.995600 -0.000000
vn -0.093704 -0.946872 0.307657
vn -0.093704 -0.805457 0.585199
vn -0.093704 -0.585199 0.805458
vn -0.093704 -0.307657 0.946872
vn -0.093704 0.000000 0.995600
vn -0.093704 0.307657 0.946872
vn -0.093704 0.585199 0.805458
vn -0.093704 0.805458 0.585199
vn -0.093704 0.946872 0.307657
vn -0.093704 0.995600 0.000002
vn 0.942783 -0.125717 -0.308798
vn 0.802936 -0.101427 -0.587373
vn 0.803755 -0.095582 -0.587233
vn 0.943568 -0.119867 -0.308725
vn 0.585120 -0.063593 -0.808449
vn 0.585992 -0.057758 -0.808256
vn 0.310658 -0.015920 -0.950388
vn 0.311595 -0.010096 -0.950161
vn 0.006414 0.036926 -0.999297
vn 0.007423 0.042737 -0.999059
vn -0.297831 0.089771 -0.950388
vn -0.296749 0.095570 -0.950161
vn -0.572294 0.137444 -0.808448
vn -0.571146 0.143232 -0.808255
vn -0.790109 0.175278 -0.587372
vn -0.788909 0.181056 -0.587232
vn -0.929954 0.199568 -0.308801
vn -0.928721 0.205341 -0.308727
vn -0.978142 0.207938 0.000000
vn -0.976897 0.213709 0.000000
vn -0.929954 0.199568 0.308801
vn -0.928721 0.205341 0.308727
vn -0.790109 0.175278 0.587372
vn -0.788909 0.181056 0.587232
vn -0.572294 0.137444 0.808449
vn -0.571146 0.143232 0.808255
vn -0.297830 0.089771 0.950388
vn -0.296748 0.095570 0.950161
vn 0.006414 0.036926 0.999297
vn 0.007423 0.042737 0.999059
vn 0.310658 -0.015920 0.950388
vn 0.311595 -0.010096 0.950161
vn 0.585121 -0.063593 0.808449
vn 0.585992 -0.057758 0.808256
vn 0.802936 -0.101427 0.587372
vn 0.803755 -0.095582 0.587232
vn 0.942782 -0.125717 0.308799
vn 0.943568 -0.119867 0.308726
vn 0.990970 -0.134087 0.000001
vn 0.991744 -0.128235 0.000001
vn -0.223328 -0.973972 0.038768
vn -0.232558 -0.972369 0.020377
vn -0.171133 -0.985248 0.000000
vn -0.208952 -0.976469 0.053358
vn -0.190840 -0.979615 0.062725
vn -0.170761 -0.983103 0.065951
vn -0.150682 -0.986590 0.062724
vn -0.132569 -0.989737 0.053358
vn -0.118193 -0.992234 0.038767
vn -0.108963 -0.993837 0.020379
vn -0.105782 -0.994389 -0.000000
vn -0.108963 -0.993837 -0.020379
vn -0.118193 -0.992234 -0.038765
vn -0.132570 -0.989737 -0.053357
vn -0.150683 -0.986590 -0.062725
vn -0.170761 -0.983103 -0.065953
vn -0.190840 -0.979615 -0.062725
vn -0.208952 -0.976469 -0.053357
vn -0.223329 -0.973972 -0.038763
vn -0.232559 -0.972369 -0.020377
vn -0.235740 -0.971816 -0.000004
vn -0.802936 -0.101427 -0.587372
vn -0.942782 -0.125717 -0.308799
vn -0.943568 -0.119867 -0.308725
vn -0.803755 -0.095582 -0.587232
vn -0.585121 -0.063593 -0.808449
vn -0.585992 -0.057758 -0.808256
vn -0.310659 -0.015920 -0.950388
vn -0.311595 -0.010096 -0.950161
vn -0.006414 0.036926 -0.999297
vn -0.007423 0.042737 -0.999059
vn 0.297831 0.089772 -0.950388
vn 0.296749 0.095570 -0.950161
vn 0.572294 0.137444 -0.808448
vn 0.571146 0.143232 -0.808255
vn 0.790109 0.175278 -0.587372
vn 0.788909 0.181056 -0.587232
vn 0.929954 0.199568 -0.308801
vn 0.928721 0.205341 -0.308727
vn 0.978142 0.207938 -0.000000
vn 0.976897 0.213709 -0.000000
vn 0.929954 0.199568 0.308801
vn 0.928721 0.205341 0.308728
vn 0.790109 0.175278 0.587372
vn 0.788909 0.181056 0.587232
vn 0.572294 0.137444 0.808448
vn 0.571146 0.143232 0.808255
vn 0.297830 0.089771 0.950388
vn 0.296748 0.095570 0.950162
vn -0.006414 0.036926 0.999297
vn -0.007423 0.042737 0.999059
vn -0.310658 -0.015920 0.950388
vn -0.311595 -0.010096 0.950161
vn -0.585121 -0.063593 0.808449
vn -0.585992 -0.057758 0.808256
vn -0.802936 -0.101427 0.587372
vn -0.803755 -0.095582 0.587232
vn -0.942782 -0.125717 0.308799
vn -0.943568 -0.119867 0.308726
vn -0.990970 -0.134087 0.000001
vn -0.991744 -0.128235 0.000001
vn 0.223329 -0.973972 0.038765
vn 0.171133 -0.985248 0.000000
vn 0.232560 -0.972369 0.020380
vn 0.208955 -0.976469 0.053357
vn 0.190842 -0.979615 0.062724
vn 0.170761 -0.983103 0.065952
vn 0.150679 -0.986591 0.062724
vn 0.132567 -0.989737 0.053356
vn 0.118193 -0.992234 0.038767
vn 0.108962 -0.993837 0.020381
vn 0.105782 -0.994389 0.000000
vn 0.108962 -0.993837 -0.020380
vn 0.118193 -0.992234 -0.038767
vn 0.132567 -0.989737 -0.053357
vn 0.150680 -0.986591 -0.062724
vn 0.170761 -0.983103 -0.065952
vn 0.190842 -0.979615 -0.062723
vn 0.208955 -0.976469 -0.053356
vn 0.223330 -0.973972 -0.038765
vn 0.232560 -0.972368 -0.020380
vn 0.235740 -0.971816 -0.000000
vn 0.937027 -0.162757 -0.309015
vn 0.797082 -0.138449 -0.587786
vn 0.579113 -0.100589 -0.809018
vn 0.304459 -0.052883 -0.951057
vn -0.000000 0.000000 -1.000000
vn -0.304459 0.052883 -0.951056
vn -0.579115 0.100590 -0.809017
vn -0.797083 0.138450 -0.587785
vn -0.937026 0.162757 -0.309019
vn -0.985248 0.171133 0.000000
vn -0.937026 0.162757 0.309019
vn -0.797083 0.138450 0.587784
vn -0.579115 0.100590 0.809016
vn -0.304458 0.052883 0.951057
vn 0.000000 0.000000 1.000000
vn 0.304458 -0.052883 0.951057
vn 0.579114 -0.100589 0.809017
vn 0.797082 -0.138450 0.587785
vn 0.937027 -0.162757 0.309016
vn 0.985248 -0.171133 0.000001
vn -0.937027 -0.162757 -0.309015
vn -0.797082 -0.138450 -0.587786
vn -0.985248 -0.171133 0.000001
vn -0.937027 -0.162757 0.309016
vn -0.797082 -0.138450 0.587785
vn -0.579114 -0.100589 0.809017
vn -0.304459 -0.052883 0.951057
vn -0.000000 0.000000 1.000000
vn 0.304458 0.052883 0.951057
vn 0.579115 0.100590 0.809016
vn 0.797083 0.138450 0.587785
vn 0.937026 0.162757 0.309019
vn 0.985248 0.171133 0.000000
vn 0.937026 0.162757 -0.309018
vn 0.797083 0.138450 -0.587785
vn 0.579115 0.100590 -0.809016
vn 0.304459 0.052883 -0.951056
vn 0.000000 0.000000 -1.000000
vn -0.304459 -0.052883 -0.951056
vn -0.579113 -0.100589 -0.809018
s 1
g pCylinder5
usemtl initialShadingGroup
f 1/1/1 2/2/2 22/22/3 21/21/4
f 2/2/2 3/3/5 23/23/6 22/22/3
f 3/3/5 4/4/7 24/24/8 23/23/6
f 4/4/7 5/5/9 25/25/10 24/24/8
f 5/5/9 6/6/11 26/26/12 25/25/10
f 6/6/11 7/7/13 27/27/14 26/26/12
f 7/7/13 8/8/15 28/28/16 27/27/14
f 8/8/15 9/9/17 29/29/18 28/28/16
f 9/9/17 10/10/19 30/30/20 29/29/18
f 10/10/19 11/11/21 31/31/22 30/30/20
f 11/11/21 12/12/23 32/32/24 31/31/22
f 12/12/23 13/13/25 33/33/26 32/32/24
f 13/13/25 14/14/27 34/34/28 33/33/26
f 14/14/27 15/15/29 35/42/30 34/34/28
f 15/41/29 16/16/31 36/36/32 35/35/30
f 16/16/31 17/17/33 37/37/34 36/36/32
f 17/17/33 18/18/35 38/38/36 37/37/34
f 18/18/35 19/19/37 39/39/38 38/38/36
f 19/19/37 20/20/39 40/40/40 39/39/38
f 20/20/39 1/1/1 21/21/4 40/40/40
s 2
f 41/43/41 42/44/42 62/45/43 61/46/44
f 42/44/42 43/47/45 63/48/46 62/45/43
f 43/47/45 44/49/47 64/50/48 63/48/46
f 44/49/47 45/51/49 65/52/50 64/50/48
f 45/51/49 46/53/51 66/54/52 65/52/50
f 46/53/51 47/55/53 67/56/54 66/54/52
f 47/55/53 48/57/55 68/58/56 67/56/54
f 48/57/55 49/59/57 69/60/58 68/58/56
f 49/59/57 50/61/59 70/62/60 69/60/58
f 50/61/59 51/63/61 71/64/62 70/62/60
f 51/63/61 52/65/63 72/66/64 71/64/62
f 52/65/63 53/67/65 73/68/66 72/66/64
f 53/67/65 54/69/67 74/70/68 73/68/66
f 54/69/67 55/71/69 75/72/70 74/70/68
f 55/73/69 56/74/71 76/75/72 75/76/70
f 56/74/71 57/77/73 77/78/74 76/75/72
f 57/77/73 58/79/75 78/80/76 77/78/74
f 58/79/75 59/81/77 79/82/78 78/80/76
f 59/81/77 60/83/79 80/84/80 79/82/78
f 60/83/79 41/43/41 61/46/44 80/84/80
s 3
f 82/85/81 81/86/82 83/87/83
f 84/88/84 82/85/81 83/87/83
f 85/89/85 84/88/84 83/87/83
f 86/90/86 85/89/85 83/87/83
f 87/91/87 86/90/86 83/87/83
f 88/92/88 87/91/87 83/87/83
f 89/93/89 88/92/88 83/87/83
f 90/94/90 89/93/89 83/87/83
f 91/95/91 90/94/90 83/87/83
f 92/96/92 91/95/91 83/87/83
f 93/97/93 92/96/92 83/87/83
f 94/98/94 93/97/93 83/87/83
f 95/99/95 94/98/94 83/87/83
f 96/100/96 95/99/95 83/87/83
f 97/101/97 96/100/96 83/87/83
f 98/102/98 97/101/97 83/87/83
f 99/103/99 98/102/98 83/87/83
f 100/104/100 99/103/99 83/87/83
f 101/105/101 100/104/100 83/87/83
f 81/86/82 101/105/101 83/87/83
s 2
f 42/44/42 41/43/41 81/106/102 82/107/103
f 43/47/45 42/44/42 82/107/103 84/108/104
f 44/49/47 43/47/45 84/108/104 85/109/105
f 45/51/49 44/49/47 85/109/105 86/110/106
f 46/53/51 45/51/49 86/110/106 87/111/107
f 47/55/53 46/53/51 87/111/107 88/112/108
f 48/57/55 47/55/53 88/112/108 89/113/109
f 49/59/57 48/57/55 89/113/109 90/114/110
f 50/61/59 49/59/57 90/114/110 91/115/111
f 51/63/61 50/61/59 91/115/111 92/116/112
f 52/65/63 51/63/61 92/116/112 93/117/113
f 53/67/65 52/65/63 93/117/113 94/118/114
f 54/69/67 53/67/65 94/118/114 95/119/115
f 55/71/69 54/69/67 95/119/115 96/120/116
f 56/74/71 55/73/69 96/121/116 97/122/117
f 57/77/73 56/74/71 97/122/117 98/123/118
f 58/79/75 57/77/73 98/123/118 99/124/119
f 59/81/77 58/79/75 99/124/119 100/125/120
f 60/83/79 59/81/77 100/125/120 101/126/121
f 41/43/41 60/83/79 101/126/121 81/106/102
s 4
f 204/127/122 205/128/123 124/129/124 123/130/125
f 205/128/123 206/131/126 125/132/127 124/129/124
f 206/131/126 207/133/128 126/134/129 125/132/127
f 207/133/128 208/135/130 127/136/131 126/134/129
f 208/135/130 209/137/132 128/138/133 127/136/131
f 209/137/132 210/139/134 129/140/135 128/138/133
f 210/139/134 211/141/136 130/142/137 129/140/135
f 211/141/136 212/143/138 131/144/139 130/142/137
f 212/143/138 213/145/140 132/146/141 131/144/139
f 213/145/140 214/147/142 133/148/143 132/146/141
f 214/147/142 215/149/144 134/150/145 133/148/143
f 215/149/144 216/151/146 135/152/147 134/150/145
f 216/151/146 217/153/148 136/154/149 135/152/147
f 217/153/148 218/155/150 137/156/151 136/154/149
f 218/157/150 219/158/152 138/159/153 137/160/151
f 219/158/152 220/161/154 139/162/155 138/159/153
f 220/161/154 221/163/156 140/164/157 139/162/155
f 221/163/156 222/165/158 141/166/159 140/164/157
f 222/165/158 223/167/160 142/168/161 141/166/159
f 223/167/160 204/127/122 123/130/125 142/168/161
s 5
f 103/169/162 102/170/163 122/171/164
f 104/172/165 103/169/162 122/171/164
f 105/173/166 104/172/165 122/171/164
f 106/174/167 105/173/166 122/171/164
f 107/175/168 106/174/167 122/171/164
f 108/176/169 107/175/168 122/171/164
f 109/177/170 108/176/169 122/171/164
f 110/178/171 109/177/170 122/171/164
f 111/179/172 110/178/171 122/171/164
f 112/180/173 111/179/172 122/171/164
f 113/181/174 112/180/173 122/171/164
f 114/182/175 113/181/174 122/171/164
f 115/183/176 114/182/175 122/171/164
f 116/184/177 115/183/176 122/171/164
f 117/185/178 116/184/177 122/171/164
f 118/186/179 117/185/178 122/171/164
f 119/187/180 118/186/179 122/171/164
f 120/188/181 119/187/180 122/171/164
f 121/189/182 120/188/181 122/171/164
f 102/170/163 121/189/182 122/171/164
s 4
f 143/190/183 184/191/184 185/192/185 144/193/186
f 144/193/186 185/192/185 186/194/187 145/195/188
f 145/195/188 186/194/187 187/196/189 146/197/190
f 146/197/190 187/196/189 188/198/191 147/199/192
f 147/199/192 188/198/191 189/200/193 148/201/194
f 148/201/194 189/200/193 190/202/195 149/203/196
f 149/203/196 190/202/195 191/204/197 150/205/198
f 150/205/198 191/204/197 192/206/199 151/207/200
f 151/207/200 192/206/199 193/208/201 152/209/202
f 152/209/202 193/208/201 194/210/203 153/211/204
f 153/211/204 194/210/203 195/212/205 154/213/206
f 154/213/206 195/212/205 196/214/207 155/215/208
f 155/215/208 196/214/207 197/216/209 156/217/210
f 156/217/210 197/216/209 198/218/211 157/219/212
f 157/220/212 198/221/211 199/222/213 158/223/214
f 158/223/214 199/222/213 200/224/215 159/225/216
f 159/225/216 200/224/215 201/226/217 160/227/218
f 160/227/218 201/226/217 202/228/219 161/229/220
f 161/229/220 202/228/219 203/230/221 162/231/222
f 162/231/222 203/230/221 184/191/184 143/190/183
s 7
f 144/232/223 163/233/224 143/234/225
f 145/235/226 163/233/224 144/232/223
f 146/236/227 163/233/224 145/235/226
f 147/237/228 163/233/224 146/236/227
f 148/238/229 163/233/224 147/237/228
f 149/239/230 163/233/224 148/238/229
f 150/240/231 163/233/224 149/239/230
f 151/241/232 163/233/224 150/240/231
f 152/242/233 163/233/224 151/241/232
f 153/243/234 163/233/224 152/242/233
f 154/244/235 163/233/224 153/243/234
f 155/245/236 163/233/224 154/244/235
f 156/246/237 163/233/224 155/245/236
f 157/247/238 163/233/224 156/246/237
f 158/248/239 163/233/224 157/247/238
f 159/249/240 163/233/224 158/248/239
f 160/250/241 163/233/224 159/249/240
f 161/251/242 163/233/224 160/250/241
f 162/252/243 163/233/224 161/251/242
f 143/234/225 163/233/224 162/252/243
s 4
f 102/253/244 103/254/245 165/255/246 164/256/247
f 103/254/245 104/257/248 166/258/249 165/255/246
f 104/257/248 105/259/250 167/260/251 166/258/249
f 105/259/250 106/261/252 168/262/253 167/260/251
f 106/261/252 107/263/254 169/264/255 168/262/253
f 107/263/254 108/265/256 170/266/257 169/264/255
f 108/265/256 109/267/258 171/268/259 170/266/257
f 109/267/258 110/269/260 172/270/261 171/268/259
f 110/269/260 111/271/262 173/272/263 172/270/261
f 111/271/262 112/273/264 174/274/265 173/272/263
f 112/273/264 113/275/266 175/276/267 174/274/265
f 113/275/266 114/277/268 176/278/269 175/276/267
f 114/277/268 115/279/270 177/280/271 176/278/269
f 115/279/270 116/281/272 178/282/273 177/280/271
f 116/283/272 117/284/274 179/285/275 178/286/273
f 117/284/274 118/287/276 180/288/277 179/285/275
f 118/287/276 119/289/278 181/290/279 180/288/277
f 119/289/278 120/291/280 182/292/281 181/290/279
f 120/291/280 121/293/282 183/294/283 182/292/281
f 121/293/282 102/253/244 164/256/247 183/294/283
f 185/192/185 184/191/184 224/295/284 225/296/285
f 186/194/187 185/192/185 225/296/285 226/297/286
f 187/196/189 186/194/187 226/297/286 227/298/287
f 188/198/191 187/196/189 227/298/287 228/299/288
f 189/200/193 188/198/191 228/299/288 229/300/289
f 190/202/195 189/200/193 229/300/289 230/301/290
f 191/204/197 190/202/195 230/301/290 231/302/291
f 192/206/199 191/204/197 231/302/291 232/303/292
f 193/208/201 192/206/199 232/303/292 233/304/293
f 194/210/203 193/208/201 233/304/293 234/305/294
f 195/212/205 194/210/203 234/305/294 235/306/295
f 196/214/207 195/212/205 235/306/295 236/307/296
f 197/216/209 196/214/207 236/307/296 237/308/297
f 198/218/211 197/216/209 237/308/297 238/309/298
f 199/222/213 198/221/211 238/310/298 239/311/299
f 200/224/215 199/222/213 239/311/299 240/312/300
f 201/226/217 200/224/215 240/312/300 241/313/301
f 202/228/219 201/226/217 241/313/301 242/314/302
f 203/230/221 202/228/219 242/314/302 243/315/303
f 184/191/184 203/230/221 243/315/303 224/295/284
f 164/256/247 165/255/246 205/128/123 204/127/122
f 165/255/246 166/258/249 206/131/126 205/128/123
f 166/258/249 167/260/251 207/133/128 206/131/126
f 167/260/251 168/262/253 208/135/130 207/133/128
f 168/262/253 169/264/255 209/137/132 208/135/130
f 169/264/255 170/266/257 210/139/134 209/137/132
f 170/266/257 171/268/259 211/141/136 210/139/134
f 171/268/259 172/270/261 212/143/138 211/141/136
f 172/270/261 173/272/263 213/145/140 212/143/138
f 173/272/263 174/274/265 214/147/142 213/145/140
f 174/274/265 175/276/267 215/149/144 214/147/142
f 175/276/267 176/278/269 216/151/146 215/149/144
f 176/278/269 177/280/271 217/153/148 216/151/146
f 177/280/271 178/282/273 218/155/150 217/153/148
f 178/286/273 179/285/275 219/158/152 218/157/150
f 179/285/275 180/288/277 220/161/154 219/158/152
f 180/288/277 181/290/279 221/163/156 220/161/154
f 181/290/279 182/292/281 222/165/158 221/163/156
f 182/292/281 183/294/283 223/167/160 222/165/158
f 183/294/283 164/256/247 204/127/122 223/167/160
f 225/296/285 224/295/284 123/130/125 124/129/124
f 226/297/286 225/296/285 124/129/124 125/132/127
f 227/298/287 226/297/286 125/132/127 126/134/129
f 228/299/288 227/298/287 126/134/129 127/136/131
f 229/300/289 228/299/288 127/136/131 128/138/133
f 230/301/290 229/300/289 128/138/133 129/140/135
f 231/302/291 230/301/290 129/140/135 130/142/137
f 232/303/292 231/302/291 130/142/137 131/144/139
f 233/304/293 232/303/292 131/144/139 132/146/141
f 234/305/294 233/304/293 132/146/141 133/148/143
f 235/306/295 234/305/294 133/148/143 134/150/145
f 236/307/296 235/306/295 134/150/145 135/152/147
f 237/308/297 236/307/296 135/152/147 136/154/149
f 238/309/298 237/308/297 136/154/149 137/156/151
f 239/311/299 238/310/298 137/160/151 138/159/153
f 240/312/300 239/311/299 138/159/153 139/162/155
f 241/313/301 240/312/300 139/162/155 140/164/157
f 242/314/302 241/313/301 140/164/157 141/166/159
f 243/315/303 242/314/302 141/166/159 142/168/161
f 224/295/284 243/315/303 142/168/161 123/130/125
s 9
f 326/316/304 327/317/305 265/318/306 264/319/307
f 327/317/305 328/320/308 266/321/309 265/318/306
f 328/320/308 329/322/310 267/323/311 266/321/309
f 329/322/310 330/324/312 268/325/313 267/323/311
f 330/324/312 331/326/314 269/327/315 268/325/313
f 331/326/314 332/328/316 270/329/317 269/327/315
f 332/328/316 333/330/318 271/331/319 270/329/317
f 333/330/318 334/332/320 272/333/321 271/331/319
f 334/332/320 335/334/322 273/335/323 272/333/321
f 335/334/322 336/336/324 274/337/325 273/335/323
f 336/336/324 337/338/326 275/339/327 274/337/325
f 337/338/326 338/340/328 276/341/329 275/339/327
f 338/340/328 339/342/330 277/343/331 276/341/329
f 339/342/330 340/344/332 278/345/333 277/343/331
f 340/346/332 341/347/334 279/348/335 278/349/333
f 341/347/334 342/350/336 280/351/337 279/348/335
f 342/350/336 343/352/338 281/353/339 280/351/337
f 343/352/338 344/354/340 282/355/341 281/353/339
f 344/354/340 345/356/342 283/357/343 282/355/341
f 345/356/342 326/316/304 264/319/307 283/357/343
s 10
f 245/358/344 244/359/345 284/360/346
f 246/361/347 245/358/344 284/360/346
f 247/362/348 246/361/347 284/360/346
f 248/363/349 247/362/348 284/360/346
f 249/364/350 248/363/349 284/360/346
f 250/365/351 249/364/350 284/360/346
f 251/366/352 250/365/351 284/360/346
f 252/367/353 251/366/352 284/360/346
f 253/368/354 252/367/353 284/360/346
f 254/369/355 253/368/354 284/360/346
f 255/370/356 254/369/355 284/360/346
f 256/371/357 255/370/356 284/360/346
f 257/372/358 256/371/357 284/360/346
f 258/373/359 257/372/358 284/360/346
f 259/374/360 258/373/359 284/360/346
f 260/375/361 259/374/360 284/360/346
f 261/376/362 260/375/361 284/360/346
f 262/377/363 261/376/362 284/360/346
f 263/378/364 262/377/363 284/360/346
f 244/359/345 263/378/364 284/360/346
s 11
f 346/379/365 347/380/366 305/381/367 306/382/368
f 365/383/369 346/379/365 306/382/368 307/384/370
f 364/385/371 365/383/369 307/384/370 308/386/372
f 363/387/373 364/385/371 308/386/372 309/388/374
f 362/389/375 363/387/373 309/388/374 310/390/376
f 361/391/377 362/389/375 310/390/376 311/392/378
f 360/393/379 361/391/377 311/392/378 312/394/380
f 359/395/381 360/393/379 312/394/380 313/396/382
f 358/397/383 359/395/381 313/396/382 314/398/384
f 357/399/385 358/397/383 314/398/384 315/400/386
f 356/401/387 357/399/385 315/400/386 316/402/388
f 355/403/389 356/401/387 316/402/388 317/404/390
f 354/405/391 355/403/389 317/404/390 318/406/392
f 353/407/393 354/405/391 318/406/392 319/408/394
f 352/409/395 353/410/393 319/411/394 320/412/396
f 351/413/397 352/409/395 320/412/396 321/414/398
f 350/415/399 351/413/397 321/414/398 322/416/400
f 349/417/401 350/415/399 322/416/400 323/418/402
f 348/419/403 349/417/401 323/418/402 324/420/404
f 347/380/366 348/419/403 324/420/404 305/381/367
s 12
f 286/421/405 325/422/406 285/423/407
f 287/424/408 325/422/406 286/421/405
f 288/425/409 325/422/406 287/424/408
f 289/426/410 325/422/406 288/425/409
f 290/427/411 325/422/406 289/426/410
f 291/428/412 325/422/406 290/427/411
f 292/429/413 325/422/406 291/428/412
f 293/430/414 325/422/406 292/429/413
f 294/431/415 325/422/406 293/430/414
f 295/432/416 325/422/406 294/431/415
f 296/433/417 325/422/406 295/432/416
f 297/434/418 325/422/406 296/433/417
f 298/435/419 325/422/406 297/434/418
f 299/436/420 325/422/406 298/435/419
f 300/437/421 325/422/406 299/436/420
f 301/438/422 325/422/406 300/437/421
f 302/439/423 325/422/406 301/438/422
f 303/440/424 325/422/406 302/439/423
f 304/441/425 325/422/406 303/440/424
f 285/423/407 325/422/406 304/441/425
s 9
f 244/442/426 245/443/427 327/317/305 326/316/304
f 245/443/427 246/444/428 328/320/308 327/317/305
f 246/444/428 247/445/429 329/322/310 328/320/308
f 247/445/429 248/446/430 330/324/312 329/322/310
f 248/446/430 249/447/431 331/326/314 330/324/312
f 249/447/431 250/448/432 332/328/316 331/326/314
f 250/448/432 251/449/433 333/330/318 332/328/316
f 251/449/433 252/450/434 334/332/320 333/330/318
f 252/450/434 253/451/435 335/334/322 334/332/320
f 253/451/435 254/452/436 336/336/324 335/334/322
f 254/452/436 255/453/437 337/338/326 336/336/324
f 255/453/437 256/454/438 338/340/328 337/338/326
f 256/454/438 257/455/439 339/342/330 338/340/328
f 257/455/439 258/456/440 340/344/332 339/342/330
f 258/457/440 259/458/441 341/347/334 340/346/332
f 259/458/441 260/459/442 342/350/336 341/347/334
f 260/459/442 261/460/443 343/352/338 342/350/336
f 261/460/443 262/461/444 344/354/340 343/352/338
f 262/461/444 263/462/445 345/356/342 344/354/340
f 263/462/445 244/442/426 326/316/304 345/356/342
s 11
f 285/463/446 347/380/366 346/379/365 286/464/447
f 304/465/448 348/419/403 347/380/366 285/463/446
f 303/466/449 349/417/401 348/419/403 304/465/448
f 302/467/450 350/415/399 349/417/401 303/466/449
f 301/468/451 351/413/397 350/415/399 302/467/450
f 300/469/452 352/409/395 351/413/397 301/468/451
f 299/470/453 353/410/393 352/409/395 300/469/452
f 298/471/454 354/405/391 353/407/393 299/472/453
f 297/473/455 355/403/389 354/405/391 298/471/454
f 296/474/456 356/401/387 355/403/389 297/473/455
f 295/475/457 357/399/385 356/401/387 296/474/456
f 294/476/458 358/397/383 357/399/385 295/475/457
f 293/477/459 359/395/381 358/397/383 294/476/458
f 292/478/460 360/393/379 359/395/381 293/477/459
f 291/479/461 361/391/377 360/393/379 292/478/460
f 290/480/462 362/389/375 361/391/377 291/479/461
f 289/481/463 363/387/373 362/389/375 290/480/462
f 288/482/464 364/385/371 363/387/373 289/481/463
f 287/483/465 365/383/369 364/385/371 288/482/464
f 286/464/447 346/379/365 365/383/369 287/483/465
